999
dxfrw 0.6.3
  0
SECTION
  2
HEADER
  9
$ACADVER
  1
AC1021
  9
$DWGCODEPAGE
  3
ANSI_1252
  9
$INSBASE
 10
0
 20
0
 30
0
  9
$EXTMIN
 10
-553.588273912
 20
-3366.632198364446
 30
0
  9
$EXTMAX
 10
12177.3162821
 20
1436.031958623789
 30
0
  9
$LIMMIN
 10
0
 20
0
  9
$LIMMAX
 10
420
 20
297
  9
$ORTHOMODE
 70
    0
  9
$REGENMODE
 70
    1
  9
$FILLMODE
 70
    1
  9
$QTEXTMODE
 70
    0
  9
$MIRRTEXT
 70
    0
  9
$LTSCALE
 40
1
  9
$ATTMODE
 70
    0
  9
$TEXTSIZE
 40
2.5
  9
$TRACEWID
 40
15.68
  9
$TEXTSTYLE
  7
STANDARD
  9
$CLAYER
  8
dimension
  9
$CELTYPE
  6
BYLAYER
  9
$CECOLOR
 62
  256
  9
$CELTSCALE
 40
1
  9
$DISPSILH
 70
    0
  9
$DIMSCALE
 40
1
  9
$DIMASZ
 40
30
  9
$DIMEXO
 40
60
  9
$DIMDLI
 40
3.75
  9
$DIMRND
 40
0
  9
$DIMDLE
 40
0
  9
$DIMEXE
 40
50
  9
$DIMTP
 40
0
  9
$DIMTM
 40
0
  9
$DIMTXT
 40
100
  9
$DIMCEN
 40
2.5
  9
$DIMTSZ
 40
0
  9
$DIMTOL
 70
    0
  9
$DIMLIM
 70
    0
  9
$DIMTIH
 70
    0
  9
$DIMTOH
 70
    0
  9
$DIMSE1
 70
    0
  9
$DIMSE2
 70
    0
  9
$DIMTAD
 70
    1
  9
$DIMZIN
 70
    8
  9
$DIMBLK
  1

  9
$DIMASO
 70
    1
  9
$DIMSHO
 70
    1
  9
$DIMPOST
  1

  9
$DIMAPOST
  1

  9
$DIMALT
 70
    0
  9
$DIMALTD
 70
    3
  9
$DIMALTF
 40
0.03937
  9
$DIMLFAC
 40
1
  9
$DIMTOFL
 70
    1
  9
$DIMTVP
 40
0
  9
$DIMTIX
 70
    0
  9
$DIMSOXD
 70
    0
  9
$DIMSAH
 70
    0
  9
$DIMBLK1
  1

  9
$DIMBLK2
  1

  9
$DIMSTYLE
  2
STANDARD
  9
$DIMCLRD
 70
    0
  9
$DIMCLRE
 70
    0
  9
$DIMCLRT
 70
    0
  9
$DIMTFAC
 40
1
  9
$DIMGAP
 40
50
  9
$DIMJUST
 70
    0
  9
$DIMSD1
 70
    0
  9
$DIMSD2
 70
    0
  9
$DIMTOLJ
 70
    0
  9
$DIMTZIN
 70
    8
  9
$DIMALTZ
 70
    0
  9
$DIMALTTZ
 70
    0
  9
$DIMUPT
 70
    0
  9
$DIMDEC
 70
    4
  9
$DIMTDEC
 70
    2
  9
$DIMALTU
 70
    2
  9
$DIMALTTD
 70
    3
  9
$DIMTXSTY
  7
standard
  9
$DIMAUNIT
 70
    0
  9
$DIMADEC
 70
    0
  9
$DIMALTRND
 40
0
  9
$DIMAZIN
 70
    0
  9
$DIMDSEP
 70
   44
  9
$DIMATFIT
 70
    3
  9
$DIMFRAC
 70
    0
  9
$DIMLDRBLK
  1
STANDARD
  9
$DIMLUNIT
 70
    2
  9
$DIMLWD
 70
   -2
  9
$DIMLWE
 70
   -2
  9
$DIMTMOVE
 70
    0
  9
$DIMFXL
 40
1
  9
$DIMFXLON
 70
    0
  9
$DIMJOGANG
 40
0.7854
  9
$DIMTFILL
 70
    0
  9
$DIMTFILLCLR
 70
    0
  9
$DIMARCSYM
 70
    0
  9
$DIMLTYPE
  6

  9
$DIMLTEX1
  6

  9
$DIMLTEX2
  6

  9
$LUNITS
 70
    2
  9
$LUPREC
 70
    4
  9
$SKETCHINC
 40
1
  9
$FILLETRAD
 40
0
  9
$AUNITS
 70
    0
  9
$AUPREC
 70
    2
  9
$MENU
  1
.
  9
$ELEVATION
 40
0
  9
$PELEVATION
 40
0
  9
$THICKNESS
 40
0
  9
$LIMCHECK
 70
    0
  9
$CHAMFERA
 40
0
  9
$CHAMFERB
 40
0
  9
$CHAMFERC
 40
0
  9
$CHAMFERD
 40
0
  9
$SKPOLY
 70
    0
  9
$USRTIMER
 70
    1
  9
$ANGBASE
 50
0
  9
$ANGDIR
 70
    0
  9
$PDMODE
 70
   34
  9
$PDSIZE
 40
0
  9
$PLINEWID
 40
0
  9
$SPLFRAME
 70
    0
  9
$SPLINETYPE
 70
    2
  9
$SPLINESEGS
 70
    8
  9
$HANDSEED
  5
20000
  9
$SURFTAB1
 70
    6
  9
$SURFTAB2
 70
    6
  9
$SURFTYPE
 70
    6
  9
$SURFU
 70
    6
  9
$SURFV
 70
    6
  9
$UCSBASE
  2

  9
$UCSNAME
  2

  9
$UCSORG
 10
0
 20
0
 30
0
  9
$UCSXDIR
 10
1
 20
0
 30
0
  9
$UCSYDIR
 10
0
 20
1
 30
0
  9
$UCSORTHOREF
  2

  9
$UCSORTHOVIEW
 70
    0
  9
$UCSORGTOP
 10
0
 20
0
 30
0
  9
$UCSORGBOTTOM
 10
0
 20
0
 30
0
  9
$UCSORGLEFT
 10
0
 20
0
 30
0
  9
$UCSORGRIGHT
 10
0
 20
0
 30
0
  9
$UCSORGFRONT
 10
0
 20
0
 30
0
  9
$UCSORGBACK
 10
0
 20
0
 30
0
  9
$PUCSBASE
  2

  9
$PUCSNAME
  2

  9
$PUCSORG
 10
0
 20
0
 30
0
  9
$PUCSXDIR
 10
1
 20
0
 30
0
  9
$PUCSYDIR
 10
0
 20
1
 30
0
  9
$PUCSORTHOREF
  2

  9
$PUCSORTHOVIEW
 70
    0
  9
$PUCSORGTOP
 10
0
 20
0
 30
0
  9
$PUCSORGBOTTOM
 10
0
 20
0
 30
0
  9
$PUCSORGLEFT
 10
0
 20
0
 30
0
  9
$PUCSORGRIGHT
 10
0
 20
0
 30
0
  9
$PUCSORGFRONT
 10
0
 20
0
 30
0
  9
$PUCSORGBACK
 10
0
 20
0
 30
0
  9
$USERI1
 70
    0
  9
$USERI2
 70
    0
  9
$USERI3
 70
    0
  9
$USERI4
 70
    0
  9
$USERI5
 70
    0
  9
$USERR1
 40
0
  9
$USERR2
 40
0
  9
$USERR3
 40
0
  9
$USERR4
 40
0
  9
$USERR5
 40
0
  9
$WORLDVIEW
 70
    1
  9
$SHADEDGE
 70
    3
  9
$SHADEDIF
 70
   70
  9
$TILEMODE
 70
    1
  9
$MAXACTVP
 70
   64
  9
$PINSBASE
 10
0
 20
0
 30
0
  9
$PLIMCHECK
 70
    0
  9
$PEXTMIN
 10
0
 20
0
 30
0
  9
$PEXTMAX
 10
0
 20
0
 30
0
  9
$GRIDMODE
 70
    1
  9
$SNAPSTYLE
 70
    0
  9
$GRIDUNIT
 10
0
 20
0
  9
$PLIMMIN
 10
0
 20
0
  9
$PLIMMAX
 10
210
 20
297
  9
$UNITMODE
 70
    0
  9
$VISRETAIN
 70
    1
  9
$PLINEGEN
 70
    0
  9
$PSLTSCALE
 70
    1
  9
$TREEDEPTH
 70
 3020
  9
$CMLSTYLE
  2
Standard
  9
$CMLJUST
 70
    0
  9
$CMLSCALE
 40
20
  9
$PROXYGRAPHICS
 70
    1
  9
$MEASUREMENT
 70
    1
  9
$CELWEIGHT
370
   -1
  9
$ENDCAPS
280
    0
  9
$JOINSTYLE
280
    0
  9
$LWDISPLAY
290
    0
  9
$INSUNITS
 70
    4
  9
$HYPERLINKBASE
  1

  9
$STYLESHEET
  1

  9
$XEDIT
290
    1
  9
$CEPSNTYPE
380
    0
  9
$PSTYLEMODE
290
    1
  9
$EXTNAMES
290
    1
  9
$PSVPSCALE
 40
1
  9
$OLESTARTUP
290
    0
  9
$SORTENTS
280
  127
  9
$INDEXCTL
280
    0
  9
$HIDETEXT
280
    1
  9
$XCLIPFRAME
290
    0
  9
$HALOGAP
280
    0
  9
$OBSCOLOR
 70
  257
  9
$OBSLTYPE
280
    0
  9
$INTERSECTIONDISPLAY
280
    0
  9
$INTERSECTIONCOLOR
 70
  257
  9
$DIMASSOC
280
    1
  9
$PROJECTNAME
  1

  9
$CAMERADISPLAY
290
    0
  9
$LENSLENGTH
 40
50
  9
$CAMERAHEIGHT
 40
0
  9
$STEPSPERSEC
 40
2
  9
$STEPSIZE
 40
50
  9
$3DDWFPREC
 40
2
  9
$PSOLWIDTH
 40
5
  9
$PSOLHEIGHT
 40
80
  9
$LOFTANG1
 40
1.570796326794897
  9
$LOFTANG2
 40
1.570796326794897
  9
$LOFTMAG1
 40
0
  9
$LOFTMAG2
 40
0
  9
$LOFTPARAM
 70
    7
  9
$LOFTNORMALS
280
    1
  9
$LATITUDE
 40
1
  9
$LONGITUDE
 40
1
  9
$NORTHDIRECTION
 40
0
  9
$TIMEZONE
 70
-8000
  9
$LIGHTGLYPHDISPLAY
280
    1
  9
$TILEMODELIGHTSYNCH
280
    1
  9
$SOLIDHIST
280
    1
  9
$SHOWHIST
280
    1
  9
$DWFFRAME
280
    2
  9
$DGNFRAME
280
    0
  9
$REALWORLDSCALE
290
    1
  9
$INTERFERECOLOR
 62
    1
  9
$CSHADOW
280
    0
  9
$SHADOWPLANELOCATION
 40
0
  0
ENDSEC
  0
SECTION
  2
CLASSES
  0
ENDSEC
  0
SECTION
  2
TABLES
  0
TABLE
  2
VPORT
  5
8
330
0
100
AcDbSymbolTable
 70
    1
  0
VPORT
  5
31
330
2
100
AcDbSymbolTableRecord
100
AcDbViewportTableRecord
  2
*ACTIVE
 70
    0
 10
0
 20
0
 11
1
 21
1
 12
6730.431814708145
 22
930.5007513124916
 13
0
 23
0
 14
10
 24
10
 15
10
 25
10
 16
0
 26
0
 36
1
 17
0
 27
0
 37
0
 40
6576.299788417119
 41
2.348958333333333
 42
50
 43
0
 44
0
 50
0
 51
0
 71
    0
 72
  100
 73
    1
 74
    3
 75
    0
 76
    1
 77
    0
 78
    0
281
    0
 65
    1
110
0
120
0
130
0
111
1
121
0
131
0
112
0
122
1
132
0
 79
    0
146
0
348
10020
 60
    7
 61
    5
292
1
282
    1
141
0
142
0
 63
  250
421
3358443
  0
ENDTAB
  0
TABLE
  2
LTYPE
  5
5
330
0
100
AcDbSymbolTable
 70
    4
  0
LTYPE
  5
14
330
5
100
AcDbSymbolTableRecord
100
AcDbLinetypeTableRecord
  2
ByBlock
 70
    0
  3

 72
   65
 73
    0
 40
0
  0
LTYPE
  5
15
330
5
100
AcDbSymbolTableRecord
100
AcDbLinetypeTableRecord
  2
ByLayer
 70
    0
  3

 72
   65
 73
    0
 40
0
  0
LTYPE
  5
16
330
5
100
AcDbSymbolTableRecord
100
AcDbLinetypeTableRecord
  2
Continuous
 70
    0
  3
Solid line
 72
   65
 73
    0
 40
0
  0
LTYPE
  5
32
330
5
100
AcDbSymbolTableRecord
100
AcDbLinetypeTableRecord
  2
DOT
 70
    0
  3
Dot . . . . . . . . . . . . . . . . . . . . . .
 72
   65
 73
    2
 40
6.35
 49
0
 74
    0
 49
-6.35
 74
    0
  0
LTYPE
  5
33
330
5
100
AcDbSymbolTableRecord
100
AcDbLinetypeTableRecord
  2
DOTTINY
 70
    0
  3
Dot (.15x) .....................................
 72
   65
 73
    2
 40
0.9525
 49
0
 74
    0
 49
-0.9525
 74
    0
  0
LTYPE
  5
34
330
5
100
AcDbSymbolTableRecord
100
AcDbLinetypeTableRecord
  2
DOT2
 70
    0
  3
Dot (.5x) .....................................
 72
   65
 73
    2
 40
3.175
 49
0
 74
    0
 49
-3.175
 74
    0
  0
LTYPE
  5
35
330
5
100
AcDbSymbolTableRecord
100
AcDbLinetypeTableRecord
  2
DOTX2
 70
    0
  3
Dot (2x) .  .  .  .  .  .  .  .  .  .  .  .  .
 72
   65
 73
    2
 40
12.7
 49
0
 74
    0
 49
-12.7
 74
    0
  0
LTYPE
  5
36
330
5
100
AcDbSymbolTableRecord
100
AcDbLinetypeTableRecord
  2
DASHED
 70
    0
  3
Dashed _ _ _ _ _ _ _ _ _ _ _ _ _ _ _ _ _
 72
   65
 73
    2
 40
19.05
 49
12.7
 74
    0
 49
-6.35
 74
    0
  0
LTYPE
  5
37
330
5
100
AcDbSymbolTableRecord
100
AcDbLinetypeTableRecord
  2
DASHEDTINY
 70
    0
  3
Dashed (.15x) _ _ _ _ _ _ _ _ _ _ _ _ _ _ _ _ _
 72
   65
 73
    2
 40
2.8575
 49
1.905
 74
    0
 49
-0.9525
 74
    0
  0
LTYPE
  5
38
330
5
100
AcDbSymbolTableRecord
100
AcDbLinetypeTableRecord
  2
DASHED2
 70
    0
  3
Dashed (.5x) _ _ _ _ _ _ _ _ _ _ _ _ _ _ _ _ _
 72
   65
 73
    2
 40
9.524999999999999
 49
6.35
 74
    0
 49
-3.175
 74
    0
  0
LTYPE
  5
39
330
5
100
AcDbSymbolTableRecord
100
AcDbLinetypeTableRecord
  2
DASHEDX2
 70
    0
  3
Dashed (2x) ____  ____  ____  ____  ____  ___
 72
   65
 73
    2
 40
38.09999999999999
 49
25.4
 74
    0
 49
-12.7
 74
    0
  0
LTYPE
  5
3A
330
5
100
AcDbSymbolTableRecord
100
AcDbLinetypeTableRecord
  2
DASHDOT
 70
    0
  3
Dash dot __ . __ . __ . __ . __ . __ . __ . __
 72
   65
 73
    4
 40
25.4
 49
12.7
 74
    0
 49
-6.35
 74
    0
 49
0
 74
    0
 49
-6.35
 74
    0
  0
LTYPE
  5
3B
330
5
100
AcDbSymbolTableRecord
100
AcDbLinetypeTableRecord
  2
DASHDOTTINY
 70
    0
  3
Dash dot (.15x) _._._._._._._._._._._._._._._.
 72
   65
 73
    4
 40
3.81
 49
1.905
 74
    0
 49
-0.9525
 74
    0
 49
0
 74
    0
 49
-0.9525
 74
    0
  0
LTYPE
  5
3C
330
5
100
AcDbSymbolTableRecord
100
AcDbLinetypeTableRecord
  2
DASHDOT2
 70
    0
  3
Dash dot (.5x) _._._._._._._._._._._._._._._.
 72
   65
 73
    4
 40
12.7
 49
6.35
 74
    0
 49
-3.175
 74
    0
 49
0
 74
    0
 49
-3.175
 74
    0
  0
LTYPE
  5
3D
330
5
100
AcDbSymbolTableRecord
100
AcDbLinetypeTableRecord
  2
DASHDOTX2
 70
    0
  3
Dash dot (2x) ____  .  ____  .  ____  .  ___
 72
   65
 73
    4
 40
50.8
 49
25.4
 74
    0
 49
-12.7
 74
    0
 49
0
 74
    0
 49
-12.7
 74
    0
  0
LTYPE
  5
3E
330
5
100
AcDbSymbolTableRecord
100
AcDbLinetypeTableRecord
  2
DIVIDE
 70
    0
  3
Divide ____ . . ____ . . ____ . . ____ . . ____
 72
   65
 73
    6
 40
31.75
 49
12.7
 74
    0
 49
-6.35
 74
    0
 49
0
 74
    0
 49
-6.35
 74
    0
 49
0
 74
    0
 49
-6.35
 74
    0
  0
LTYPE
  5
3F
330
5
100
AcDbSymbolTableRecord
100
AcDbLinetypeTableRecord
  2
DIVIDETINY
 70
    0
  3
Divide (.15x) __..__..__..__..__..__..__..__.._
 72
   65
 73
    6
 40
4.7625
 49
1.905
 74
    0
 49
-0.9525
 74
    0
 49
0
 74
    0
 49
-0.9525
 74
    0
 49
0
 74
    0
 49
-0.9525
 74
    0
  0
LTYPE
  5
40
330
5
100
AcDbSymbolTableRecord
100
AcDbLinetypeTableRecord
  2
DIVIDE2
 70
    0
  3
Divide (.5x) __..__..__..__..__..__..__..__.._
 72
   65
 73
    6
 40
15.875
 49
6.35
 74
    0
 49
-3.175
 74
    0
 49
0
 74
    0
 49
-3.175
 74
    0
 49
0
 74
    0
 49
-3.175
 74
    0
  0
LTYPE
  5
41
330
5
100
AcDbSymbolTableRecord
100
AcDbLinetypeTableRecord
  2
DIVIDEX2
 70
    0
  3
Divide (2x) ________  .  .  ________  .  .  _
 72
   65
 73
    6
 40
63.5
 49
25.4
 74
    0
 49
-12.7
 74
    0
 49
0
 74
    0
 49
-12.7
 74
    0
 49
0
 74
    0
 49
-12.7
 74
    0
  0
LTYPE
  5
42
330
5
100
AcDbSymbolTableRecord
100
AcDbLinetypeTableRecord
  2
BORDER
 70
    0
  3
Border __ __ . __ __ . __ __ . __ __ . __ __ .
 72
   65
 73
    6
 40
44.45
 49
12.7
 74
    0
 49
-6.35
 74
    0
 49
12.7
 74
    0
 49
-6.35
 74
    0
 49
0
 74
    0
 49
-6.35
 74
    0
  0
LTYPE
  5
43
330
5
100
AcDbSymbolTableRecord
100
AcDbLinetypeTableRecord
  2
BORDERTINY
 70
    0
  3
Border (.15x) __.__.__.__.__.__.__.__.__.__.__.
 72
   65
 73
    6
 40
6.6675
 49
1.905
 74
    0
 49
-0.9525
 74
    0
 49
1.905
 74
    0
 49
-0.9525
 74
    0
 49
0
 74
    0
 49
-0.9525
 74
    0
  0
LTYPE
  5
44
330
5
100
AcDbSymbolTableRecord
100
AcDbLinetypeTableRecord
  2
BORDER2
 70
    0
  3
Border (.5x) __.__.__.__.__.__.__.__.__.__.__.
 72
   65
 73
    6
 40
22.225
 49
6.35
 74
    0
 49
-3.175
 74
    0
 49
6.35
 74
    0
 49
-3.175
 74
    0
 49
0
 74
    0
 49
-3.175
 74
    0
  0
LTYPE
  5
45
330
5
100
AcDbSymbolTableRecord
100
AcDbLinetypeTableRecord
  2
BORDERX2
 70
    0
  3
Border (2x) ____  ____  .  ____  ____  .  ___
 72
   65
 73
    6
 40
88.89999999999999
 49
25.4
 74
    0
 49
-12.7
 74
    0
 49
25.4
 74
    0
 49
-12.7
 74
    0
 49
0
 74
    0
 49
-12.7
 74
    0
  0
LTYPE
  5
46
330
5
100
AcDbSymbolTableRecord
100
AcDbLinetypeTableRecord
  2
CENTER
 70
    0
  3
Center ____ _ ____ _ ____ _ ____ _ ____ _ ____
 72
   65
 73
    4
 40
50.8
 49
31.75
 74
    0
 49
-6.35
 74
    0
 49
6.35
 74
    0
 49
-6.35
 74
    0
  0
LTYPE
  5
47
330
5
100
AcDbSymbolTableRecord
100
AcDbLinetypeTableRecord
  2
CENTERTINY
 70
    0
  3
Center (.15x) ___ _ ___ _ ___ _ ___ _ ___ _ ___
 72
   65
 73
    4
 40
7.619999999999999
 49
4.7625
 74
    0
 49
-0.9525
 74
    0
 49
0.9525
 74
    0
 49
-0.9525
 74
    0
  0
LTYPE
  5
48
330
5
100
AcDbSymbolTableRecord
100
AcDbLinetypeTableRecord
  2
CENTER2
 70
    0
  3
Center (.5x) ___ _ ___ _ ___ _ ___ _ ___ _ ___
 72
   65
 73
    4
 40
28.575
 49
19.05
 74
    0
 49
-3.175
 74
    0
 49
3.175
 74
    0
 49
-3.175
 74
    0
  0
LTYPE
  5
49
330
5
100
AcDbSymbolTableRecord
100
AcDbLinetypeTableRecord
  2
CENTERX2
 70
    0
  3
Center (2x) ________  __  ________  __  _____
 72
   65
 73
    4
 40
101.6
 49
63.5
 74
    0
 49
-12.7
 74
    0
 49
12.7
 74
    0
 49
-12.7
 74
    0
  0
ENDTAB
  0
TABLE
  2
LAYER
  5
2
330
0
100
AcDbSymbolTable
 70
    1
  0
LAYER
  5
10
330
2
100
AcDbSymbolTableRecord
100
AcDbLayerTableRecord
  2
0
 70
    0
 62
    7
  6
CONTINUOUS
370
    0
390
F
  0
LAYER
  5
4A
330
2
100
AcDbSymbolTableRecord
100
AcDbLayerTableRecord
  2
bogus
 70
    0
 62
    3
  6
CONTINUOUS
370
    0
390
F
  0
LAYER
  5
4B
330
2
100
AcDbSymbolTableRecord
100
AcDbLayerTableRecord
  2
cabinates
 70
    0
 62
    7
  6
CONTINUOUS
370
    0
390
F
  0
LAYER
  5
4C
330
2
100
AcDbSymbolTableRecord
100
AcDbLayerTableRecord
  2
dimension
 70
    0
 62
    5
  6
CONTINUOUS
370
    0
390
F
  0
LAYER
  5
4D
330
2
100
AcDbSymbolTableRecord
100
AcDbLayerTableRecord
  2
sliders
 70
    0
 62
    7
  6
CONTINUOUS
370
    0
390
F
  0
LAYER
  5
4E
330
2
100
AcDbSymbolTableRecord
100
AcDbLayerTableRecord
  2
tatami
 70
    0
 62
   96
420
32768
  6
DASHEDTINY
370
    0
390
F
  0
LAYER
  5
4F
330
2
100
AcDbSymbolTableRecord
100
AcDbLayerTableRecord
  2
text
 70
    0
 62
    7
  6
CONTINUOUS
370
    0
390
F
  0
LAYER
  5
50
330
2
100
AcDbSymbolTableRecord
100
AcDbLayerTableRecord
  2
walls
 70
    0
 62
    7
  6
CONTINUOUS
370
    0
390
F
  0
ENDTAB
  0
TABLE
  2
STYLE
  5
3
330
0
100
AcDbSymbolTable
 70
    3
  0
STYLE
  5
51
330
2
100
AcDbSymbolTableRecord
100
AcDbTextStyleTableRecord
  2
standard
 70
    0
 40
0
 41
1
 50
0
 71
    0
 42
1
  3
standard
  4

  0
ENDTAB
  0
TABLE
  2
VIEW
  5
6
330
0
100
AcDbSymbolTable
 70
    0
  0
ENDTAB
  0
TABLE
  2
UCS
  5
7
330
0
100
AcDbSymbolTable
 70
    0
  0
ENDTAB
  0
TABLE
  2
APPID
  5
9
330
0
100
AcDbSymbolTable
 70
    1
  0
APPID
  5
12
330
9
100
AcDbSymbolTableRecord
100
AcDbRegAppTableRecord
  2
ACAD
 70
    0
  0
APPID
  5
52
330
9
100
AcDbSymbolTableRecord
100
AcDbRegAppTableRecord
  2
LibreCad
 70
    0
  0
ENDTAB
  0
TABLE
  2
DIMSTYLE
  5
A
330
0
100
AcDbSymbolTable
 70
    1
100
AcDbDimStyleTable
 71
    1
  0
DIMSTYLE
105
53
330
A
100
AcDbSymbolTableRecord
100
AcDbDimStyleTableRecord
  2
Standard
 70
    0
 40
1
 41
30
 42
60
 43
0.38
 44
50
 45
0
 46
0
 47
0
 48
0
 49
1
140
100
141
0.09
142
0
143
25.4
144
1
145
0
146
1
147
50
148
0
 71
    0
 72
    0
 73
    0
 74
    1
 75
    0
 76
    0
 77
    0
 78
    8
 79
    0
170
    0
171
    2
172
    0
173
    0
174
    0
175
    0
176
    0
177
    0
178
    0
179
    0
271
    4
272
    4
273
    2
274
    2
275
    0
276
    0
277
    2
278
   44
279
    0
280
    0
281
    0
282
    0
283
    1
284
    0
285
    0
286
    0
288
    0
289
    3
340
standard
341

371
   -2
372
   -2
  0
ENDTAB
  0
TABLE
  2
BLOCK_RECORD
  5
1
330
0
100
AcDbSymbolTable
 70
    2
  0
BLOCK_RECORD
  5
1F
330
1
100
AcDbSymbolTableRecord
100
AcDbBlockTableRecord
  2
*Model_Space
 70
    0
280
    1
281
    0
  0
BLOCK_RECORD
  5
1E
330
1
100
AcDbSymbolTableRecord
100
AcDbBlockTableRecord
  2
*Paper_Space
 70
    0
280
    1
281
    0
  0
BLOCK_RECORD
  5
54
330
1
100
AcDbSymbolTableRecord
100
AcDbBlockTableRecord
  2
*D8
 70
    0
280
    1
281
    0
  0
BLOCK_RECORD
  5
57
330
1
100
AcDbSymbolTableRecord
100
AcDbBlockTableRecord
  2
*D3
 70
    0
280
    1
281
    0
  0
BLOCK_RECORD
  5
5A
330
1
100
AcDbSymbolTableRecord
100
AcDbBlockTableRecord
  2
*D7
 70
    0
280
    1
281
    0
  0
BLOCK_RECORD
  5
5D
330
1
100
AcDbSymbolTableRecord
100
AcDbBlockTableRecord
  2
*D6
 70
    0
280
    1
281
    0
  0
BLOCK_RECORD
  5
60
330
1
100
AcDbSymbolTableRecord
100
AcDbBlockTableRecord
  2
*D5
 70
    0
280
    1
281
    0
  0
BLOCK_RECORD
  5
63
330
1
100
AcDbSymbolTableRecord
100
AcDbBlockTableRecord
  2
*D9
 70
    0
280
    1
281
    0
  0
BLOCK_RECORD
  5
66
330
1
100
AcDbSymbolTableRecord
100
AcDbBlockTableRecord
  2
*D11
 70
    0
280
    1
281
    0
  0
BLOCK_RECORD
  5
69
330
1
100
AcDbSymbolTableRecord
100
AcDbBlockTableRecord
  2
*D15
 70
    0
280
    1
281
    0
  0
BLOCK_RECORD
  5
6C
330
1
100
AcDbSymbolTableRecord
100
AcDbBlockTableRecord
  2
*D2
 70
    0
280
    1
281
    0
  0
BLOCK_RECORD
  5
6F
330
1
100
AcDbSymbolTableRecord
100
AcDbBlockTableRecord
  2
*D14
 70
    0
280
    1
281
    0
  0
BLOCK_RECORD
  5
72
330
1
100
AcDbSymbolTableRecord
100
AcDbBlockTableRecord
  2
*D16
 70
    0
280
    1
281
    0
  0
BLOCK_RECORD
  5
75
330
1
100
AcDbSymbolTableRecord
100
AcDbBlockTableRecord
  2
*D4
 70
    0
280
    1
281
    0
  0
BLOCK_RECORD
  5
78
330
1
100
AcDbSymbolTableRecord
100
AcDbBlockTableRecord
  2
*D10
 70
    0
280
    1
281
    0
  0
BLOCK_RECORD
  5
7B
330
1
100
AcDbSymbolTableRecord
100
AcDbBlockTableRecord
  2
*D13
 70
    0
280
    1
281
    0
  0
BLOCK_RECORD
  5
7E
330
1
100
AcDbSymbolTableRecord
100
AcDbBlockTableRecord
  2
*D1
 70
    0
280
    1
281
    0
  0
BLOCK_RECORD
  5
81
330
1
100
AcDbSymbolTableRecord
100
AcDbBlockTableRecord
  2
*D12
 70
    0
280
    1
281
    0
  0
ENDTAB
  0
ENDSEC
  0
SECTION
  2
BLOCKS
  0
BLOCK
  5
20
330
1F
100
AcDbEntity
  8
0
100
AcDbBlockBegin
  2
*Model_Space
 70
    0
 10
0
 20
0
 30
0
  3
*Model_Space
  1

  0
ENDBLK
  5
21
330
1F
100
AcDbEntity
  8
0
100
AcDbBlockEnd
  0
BLOCK
  5
1C
330
1B
100
AcDbEntity
  8
0
100
AcDbBlockBegin
  2
*Paper_Space
 70
    0
 10
0
 20
0
 30
0
  3
*Paper_Space
  1

  0
ENDBLK
  5
1D
330
1F
100
AcDbEntity
  8
0
100
AcDbBlockEnd
  0
BLOCK
  5
55
330
54
100
AcDbEntity
  8
0
100
AcDbBlockBegin
  2
*D8
 70
    1
 10
0
 20
0
  3
*D8
  1

  0
LINE
  5
84
100
AcDbEntity
  8
dimension
  6
ByBlock
 62
    0
370
   -2
100
AcDbLine
 10
-22.68371792719995
 20
901.6253149915101
 11
611.3162820728003
 21
901.6253149915101
  0
SOLID
  5
85
100
AcDbEntity
  8
dimension
  6
ByBlock
 62
    0
370
   -2
100
AcDbTrace
 10
-22.68371792719995
 20
901.6253149915101
 30
0
 11
7.31628207280005
 21
906.6207308847842
 31
0
 12
7.31628207280005
 22
896.629899098236
 32
0
 13
7.31628207280005
 23
896.629899098236
 33
0
  0
SOLID
  5
86
100
AcDbEntity
  8
dimension
  6
ByBlock
 62
    0
370
   -2
100
AcDbTrace
 10
611.3162820728003
 20
901.6253149915101
 30
0
 11
581.3162820728003
 21
896.629899098236
 31
0
 12
581.3162820728003
 22
906.6207308847842
 32
0
 13
581.3162820728003
 23
906.6207308847842
 33
0
  0
MTEXT
  5
87
100
AcDbEntity
  8
dimension
  6
CONTINUOUS
 62
    0
370
   -2
100
AcDbMText
 10
294.3162820728002
 20
1001.62531499151
 30
0
 40
100
 41
211.1111111111236
 71
    5
 72
    1
  1
634
  7
standard
210
0
220
0
230
1
 50
0
 73
    2
 44
1
  0
LINE
  5
88
100
AcDbEntity
  8
dimension
  6
ByBlock
 62
    0
370
   -2
100
AcDbLine
 10
-22.68371792719998
 20
786.224570964
 11
-22.68371792719994
 21
951.6253149915101
  0
LINE
  5
89
100
AcDbEntity
  8
dimension
  6
ByBlock
 62
    0
370
   -2
100
AcDbLine
 10
611.3162820728003
 20
786.2245709640003
 11
611.3162820728003
 21
951.6253149915101
  0
ENDBLK
  5
56
330
54
100
AcDbEntity
  8
0
100
AcDbBlockEnd
  0
BLOCK
  5
58
330
57
100
AcDbEntity
  8
0
100
AcDbBlockBegin
  2
*D3
 70
    1
 10
0
 20
0
  3
*D3
  1

  0
LINE
  5
8A
100
AcDbEntity
  8
dimension
  6
ByBlock
 62
    0
370
   -2
100
AcDbLine
 10
12177.3162821
 20
-2005.040735490702
 11
7871.316282072801
 21
-2005.040735490702
  0
SOLID
  5
8B
100
AcDbEntity
  8
dimension
  6
ByBlock
 62
    0
370
   -2
100
AcDbTrace
 10
12177.3162821
 20
-2005.040735490702
 30
0
 11
12147.3162821
 21
-2010.036151383977
 31
0
 12
12147.3162821
 22
-2000.045319597428
 32
0
 13
12147.3162821
 23
-2000.045319597428
 33
0
  0
SOLID
  5
8C
100
AcDbEntity
  8
dimension
  6
ByBlock
 62
    0
370
   -2
100
AcDbTrace
 10
7871.316282072801
 20
-2005.040735490702
 30
0
 11
7901.316282072801
 21
-2000.045319597428
 31
0
 12
7901.316282072801
 22
-2010.036151383977
 32
0
 13
7901.316282072801
 23
-2010.036151383977
 33
0
  0
MTEXT
  5
8D
100
AcDbEntity
  8
dimension
  6
CONTINUOUS
 62
    0
370
   -2
100
AcDbMText
 10
10024.3162820864
 20
-1905.040735490702
 30
0
 40
100
 41
288.8888888889013
 71
    5
 72
    1
  1
4306
  7
standard
210
0
220
0
230
1
 50
360
 73
    2
 44
1
  0
LINE
  5
8E
100
AcDbEntity
  8
dimension
  6
ByBlock
 62
    0
370
   -2
100
AcDbLine
 10
12177.3162821
 20
-1773.77542904
 11
12177.3162821
 21
-2055.040735490702
  0
LINE
  5
8F
100
AcDbEntity
  8
dimension
  6
ByBlock
 62
    0
370
   -2
100
AcDbLine
 10
7871.316282072801
 20
-1773.77542904
 11
7871.316282072801
 21
-2055.040735490702
  0
ENDBLK
  5
59
330
57
100
AcDbEntity
  8
0
100
AcDbBlockEnd
  0
BLOCK
  5
5B
330
5A
100
AcDbEntity
  8
0
100
AcDbBlockBegin
  2
*D7
 70
    1
 10
0
 20
0
  3
*D7
  1

  0
LINE
  5
90
100
AcDbEntity
  8
dimension
  6
ByBlock
 62
    0
370
   -2
100
AcDbLine
 10
6071.3162820728
 20
-2301.704925945969
 11
-22.6837179272
 21
-2301.704925945969
  0
SOLID
  5
91
100
AcDbEntity
  8
dimension
  6
ByBlock
 62
    0
370
   -2
100
AcDbTrace
 10
6071.3162820728
 20
-2301.704925945969
 30
0
 11
6041.3162820728
 21
-2306.700341839243
 31
0
 12
6041.3162820728
 22
-2296.709510052695
 32
0
 13
6041.3162820728
 23
-2296.709510052695
 33
0
  0
SOLID
  5
92
100
AcDbEntity
  8
dimension
  6
ByBlock
 62
    0
370
   -2
100
AcDbTrace
 10
-22.6837179272
 20
-2301.704925945969
 30
0
 11
7.3162820728
 21
-2296.709510052695
 31
0
 12
7.3162820728
 22
-2306.700341839243
 32
0
 13
7.3162820728
 23
-2306.700341839243
 33
0
  0
MTEXT
  5
93
100
AcDbEntity
  8
dimension
  6
CONTINUOUS
 62
    0
370
   -2
100
AcDbMText
 10
3024.3162820728
 20
-2201.704925945969
 30
0
 40
100
 41
288.8888888888951
 71
    5
 72
    1
  1
6094
  7
standard
210
0
220
0
230
1
 50
360
 73
    2
 44
1
  0
LINE
  5
94
100
AcDbEntity
  8
dimension
  6
ByBlock
 62
    0
370
   -2
100
AcDbLine
 10
6071.3162820728
 20
-1679.77542904
 11
6071.3162820728
 21
-2351.704925945969
  0
LINE
  5
95
100
AcDbEntity
  8
dimension
  6
ByBlock
 62
    0
370
   -2
100
AcDbLine
 10
-22.68371792720001
 20
-1773.77542904
 11
-22.68371792720001
 21
-2351.704925945969
  0
ENDBLK
  5
5C
330
5A
100
AcDbEntity
  8
0
100
AcDbBlockEnd
  0
BLOCK
  5
5E
330
5D
100
AcDbEntity
  8
0
100
AcDbBlockBegin
  2
*D6
 70
    1
 10
0
 20
0
  3
*D6
  1

  0
LINE
  5
96
100
AcDbEntity
  8
dimension
  6
ByBlock
 62
    0
370
   -2
100
AcDbLine
 10
5271.3162820728
 20
-2184.851385705556
 11
5171.3162820728
 21
-2184.851385705556
  0
SOLID
  5
97
100
AcDbEntity
  8
dimension
  6
ByBlock
 62
    0
370
   -2
100
AcDbTrace
 10
5271.3162820728
 20
-2184.851385705556
 30
0
 11
5241.3162820728
 21
-2189.84680159883
 31
0
 12
5241.3162820728
 22
-2179.855969812282
 32
0
 13
5241.3162820728
 23
-2179.855969812282
 33
0
  0
SOLID
  5
98
100
AcDbEntity
  8
dimension
  6
ByBlock
 62
    0
370
   -2
100
AcDbTrace
 10
5171.3162820728
 20
-2184.851385705556
 30
0
 11
5201.3162820728
 21
-2179.855969812282
 31
0
 12
5201.3162820728
 22
-2189.84680159883
 32
0
 13
5201.3162820728
 23
-2189.84680159883
 33
0
  0
MTEXT
  5
99
100
AcDbEntity
  8
dimension
  6
CONTINUOUS
 62
    0
370
   -2
100
AcDbMText
 10
5410.205170961689
 20
-2084.851385705556
 30
0
 40
100
 41
177.7777777777778
 71
    5
 72
    1
  1
100
  7
standard
210
0
220
0
230
1
 50
360
 73
    2
 44
1
  0
LINE
  5
9A
100
AcDbEntity
  8
dimension
  6
ByBlock
 62
    0
370
   -2
100
AcDbLine
 10
5271.3162820728
 20
-1679.77542904
 11
5271.3162820728
 21
-2234.851385705556
  0
LINE
  5
9B
100
AcDbEntity
  8
dimension
  6
ByBlock
 62
    0
370
   -2
100
AcDbLine
 10
5171.3162820728
 20
-1773.77542904
 11
5171.3162820728
 21
-2234.851385705556
  0
ENDBLK
  5
5F
330
5D
100
AcDbEntity
  8
0
100
AcDbBlockEnd
  0
BLOCK
  5
61
330
60
100
AcDbEntity
  8
0
100
AcDbBlockBegin
  2
*D5
 70
    1
 10
0
 20
0
  3
*D5
  1

  0
LINE
  5
9C
100
AcDbEntity
  8
dimension
  6
ByBlock
 62
    0
370
   -2
100
AcDbLine
 10
6071.3162820728
 20
-1996.856895754006
 11
5421.3162820728
 21
-1996.856895754006
  0
SOLID
  5
9D
100
AcDbEntity
  8
dimension
  6
ByBlock
 62
    0
370
   -2
100
AcDbTrace
 10
6071.3162820728
 20
-1996.856895754006
 30
0
 11
6041.3162820728
 21
-2001.85231164728
 31
0
 12
6041.3162820728
 22
-1991.861479860732
 32
0
 13
6041.3162820728
 23
-1991.861479860732
 33
0
  0
SOLID
  5
9E
100
AcDbEntity
  8
dimension
  6
ByBlock
 62
    0
370
   -2
100
AcDbTrace
 10
5421.3162820728
 20
-1996.856895754006
 30
0
 11
5451.3162820728
 21
-1991.861479860732
 31
0
 12
5451.3162820728
 22
-2001.85231164728
 32
0
 13
5451.3162820728
 23
-2001.85231164728
 33
0
  0
MTEXT
  5
9F
100
AcDbEntity
  8
dimension
  6
CONTINUOUS
 62
    0
370
   -2
100
AcDbMText
 10
5746.3162820728
 20
-1896.856895754006
 30
0
 40
100
 41
200.0000000000124
 71
    5
 72
    1
  1
650
  7
standard
210
0
220
0
230
1
 50
360
 73
    2
 44
1
  0
LINE
  5
A0
100
AcDbEntity
  8
dimension
  6
ByBlock
 62
    0
370
   -2
100
AcDbLine
 10
6071.3162820728
 20
-1679.77542904
 11
6071.3162820728
 21
-2046.856895754006
  0
LINE
  5
A1
100
AcDbEntity
  8
dimension
  6
ByBlock
 62
    0
370
   -2
100
AcDbLine
 10
5421.3162820728
 20
-1679.77542904
 11
5421.3162820728
 21
-2046.856895754006
  0
ENDBLK
  5
62
330
60
100
AcDbEntity
  8
0
100
AcDbBlockEnd
  0
BLOCK
  5
64
330
63
100
AcDbEntity
  8
0
100
AcDbBlockBegin
  2
*D9
 70
    1
 10
0
 20
0
  3
*D9
  1

  0
LINE
  5
A2
100
AcDbEntity
  8
dimension
  6
ByBlock
 62
    0
370
   -2
100
AcDbLine
 10
611.3162820728005
 20
901.6253149915101
 11
2441.3162820728
 21
901.6253149915101
  0
SOLID
  5
A3
100
AcDbEntity
  8
dimension
  6
ByBlock
 62
    0
370
   -2
100
AcDbTrace
 10
611.3162820728005
 20
901.6253149915101
 30
0
 11
641.3162820728005
 21
906.6207308847842
 31
0
 12
641.3162820728005
 22
896.629899098236
 32
0
 13
641.3162820728005
 23
896.629899098236
 33
0
  0
SOLID
  5
A4
100
AcDbEntity
  8
dimension
  6
ByBlock
 62
    0
370
   -2
100
AcDbTrace
 10
2441.3162820728
 20
901.6253149915101
 30
0
 11
2411.3162820728
 21
896.629899098236
 31
0
 12
2411.3162820728
 22
906.6207308847842
 32
0
 13
2411.3162820728
 23
906.6207308847842
 33
0
  0
MTEXT
  5
A5
100
AcDbEntity
  8
dimension
  6
CONTINUOUS
 62
    0
370
   -2
100
AcDbMText
 10
1526.3162820728
 20
1001.62531499151
 30
0
 40
100
 41
255.5555555555617
 71
    5
 72
    1
  1
1830
  7
standard
210
0
220
0
230
1
 50
0
 73
    2
 44
1
  0
LINE
  5
A6
100
AcDbEntity
  8
dimension
  6
ByBlock
 62
    0
370
   -2
100
AcDbLine
 10
611.3162820728004
 20
786.2245709640001
 11
611.3162820728006
 21
951.6253149915101
  0
LINE
  5
A7
100
AcDbEntity
  8
dimension
  6
ByBlock
 62
    0
370
   -2
100
AcDbLine
 10
2441.3162820728
 20
786.2245709640001
 11
2441.3162820728
 21
951.6253149915101
  0
ENDBLK
  5
65
330
63
100
AcDbEntity
  8
0
100
AcDbBlockEnd
  0
BLOCK
  5
67
330
66
100
AcDbEntity
  8
0
100
AcDbBlockBegin
  2
*D11
 70
    1
 10
0
 20
0
  3
*D11
  1

  0
LINE
  5
A8
100
AcDbEntity
  8
dimension
  6
ByBlock
 62
    0
370
   -2
100
AcDbLine
 10
2641.316282072799
 20
901.6253149915101
 11
4471.3162820728
 21
901.6253149915101
  0
SOLID
  5
A9
100
AcDbEntity
  8
dimension
  6
ByBlock
 62
    0
370
   -2
100
AcDbTrace
 10
2641.316282072799
 20
901.6253149915101
 30
0
 11
2671.316282072799
 21
906.6207308847842
 31
0
 12
2671.316282072799
 22
896.629899098236
 32
0
 13
2671.316282072799
 23
896.629899098236
 33
0
  0
SOLID
  5
AA
100
AcDbEntity
  8
dimension
  6
ByBlock
 62
    0
370
   -2
100
AcDbTrace
 10
4471.3162820728
 20
901.6253149915101
 30
0
 11
4441.3162820728
 21
896.629899098236
 31
0
 12
4441.3162820728
 22
906.6207308847842
 32
0
 13
4441.3162820728
 23
906.6207308847842
 33
0
  0
MTEXT
  5
AB
100
AcDbEntity
  8
dimension
  6
CONTINUOUS
 62
    0
370
   -2
100
AcDbMText
 10
3556.3162820728
 20
1001.62531499151
 30
0
 40
100
 41
255.5555555555617
 71
    5
 72
    1
  1
1830
  7
standard
210
0
220
0
230
1
 50
0
 73
    2
 44
1
  0
LINE
  5
AC
100
AcDbEntity
  8
dimension
  6
ByBlock
 62
    0
370
   -2
100
AcDbLine
 10
2641.3162820728
 20
786.2245709640001
 11
2641.316282072799
 21
951.6253149915101
  0
LINE
  5
AD
100
AcDbEntity
  8
dimension
  6
ByBlock
 62
    0
370
   -2
100
AcDbLine
 10
4471.3162820728
 20
786.2245709640001
 11
4471.3162820728
 21
951.6253149915101
  0
ENDBLK
  5
68
330
66
100
AcDbEntity
  8
0
100
AcDbBlockEnd
  0
BLOCK
  5
6A
330
69
100
AcDbEntity
  8
0
100
AcDbBlockBegin
  2
*D15
 70
    1
 10
0
 20
0
  3
*D15
  1

  0
LINE
  5
AE
100
AcDbEntity
  8
dimension
  6
ByBlock
 62
    0
370
   -2
100
AcDbLine
 10
9601.316282072799
 20
890.4017633526137
 11
7771.3162820728
 21
890.4017633526137
  0
SOLID
  5
AF
100
AcDbEntity
  8
dimension
  6
ByBlock
 62
    0
370
   -2
100
AcDbTrace
 10
9601.316282072799
 20
890.4017633526137
 30
0
 11
9571.316282072799
 21
885.4063474593396
 31
0
 12
9571.316282072799
 22
895.3971792458877
 32
0
 13
9571.316282072799
 23
895.3971792458877
 33
0
  0
SOLID
  5
B0
100
AcDbEntity
  8
dimension
  6
ByBlock
 62
    0
370
   -2
100
AcDbTrace
 10
7771.3162820728
 20
890.4017633526137
 30
0
 11
7801.3162820728
 21
895.3971792458877
 31
0
 12
7801.3162820728
 22
885.4063474593396
 32
0
 13
7801.3162820728
 23
885.4063474593396
 33
0
  0
MTEXT
  5
B1
100
AcDbEntity
  8
dimension
  6
CONTINUOUS
 62
    0
370
   -2
100
AcDbMText
 10
8686.316282072799
 20
990.4017633526137
 30
0
 40
100
 41
255.5555555555617
 71
    5
 72
    1
  1
1830
  7
standard
210
0
220
0
230
1
 50
360
 73
    2
 44
1
  0
LINE
  5
B2
100
AcDbEntity
  8
dimension
  6
ByBlock
 62
    0
370
   -2
100
AcDbLine
 10
9601.316282072799
 20
786.2245709640001
 11
9601.316282072799
 21
940.4017633526137
  0
LINE
  5
B3
100
AcDbEntity
  8
dimension
  6
ByBlock
 62
    0
370
   -2
100
AcDbLine
 10
7771.3162820728
 20
786.2245709640001
 11
7771.3162820728
 21
940.4017633526137
  0
ENDBLK
  5
6B
330
69
100
AcDbEntity
  8
0
100
AcDbBlockEnd
  0
BLOCK
  5
6D
330
6C
100
AcDbEntity
  8
0
100
AcDbBlockBegin
  2
*D2
 70
    1
 10
0
 20
0
  3
*D2
  1

  0
LINE
  5
B4
100
AcDbEntity
  8
dimension
  6
ByBlock
 62
    0
370
   -2
100
AcDbLine
 10
-196.4121536806926
 20
-1669.77542904
 11
-196.4121536806926
 21
682.224570964
  0
SOLID
  5
B5
100
AcDbEntity
  8
dimension
  6
ByBlock
 62
    0
370
   -2
100
AcDbTrace
 10
-196.4121536806926
 20
-1669.77542904
 30
0
 11
-201.4075695739667
 21
-1639.77542904
 31
0
 12
-191.4167377874185
 22
-1639.77542904
 32
0
 13
-191.4167377874185
 23
-1639.77542904
 33
0
  0
SOLID
  5
B6
100
AcDbEntity
  8
dimension
  6
ByBlock
 62
    0
370
   -2
100
AcDbTrace
 10
-196.4121536806926
 20
682.224570964
 30
0
 11
-191.4167377874185
 21
652.224570964
 31
0
 12
-201.4075695739667
 22
652.224570964
 32
0
 13
-201.4075695739667
 23
652.224570964
 33
0
  0
MTEXT
  5
B7
100
AcDbEntity
  8
dimension
  6
CONTINUOUS
 62
    0
370
   -2
100
AcDbMText
 10
-296.4121536806926
 20
-493.7754290380001
 30
0
 40
100
 41
277.7777777777902
 71
    5
 72
    1
  1
2352
  7
standard
210
0
220
0
230
1
 50
90
 73
    2
 44
1
  0
LINE
  5
B8
100
AcDbEntity
  8
dimension
  6
ByBlock
 62
    0
370
   -2
100
AcDbLine
 10
-38.6837179272
 20
-1669.77542904
 11
-246.4121536806926
 21
-1669.77542904
  0
LINE
  5
B9
100
AcDbEntity
  8
dimension
  6
ByBlock
 62
    0
370
   -2
100
AcDbLine
 10
-38.6837179272
 20
682.224570964
 11
-246.4121536806926
 21
682.224570964
  0
ENDBLK
  5
6E
330
6C
100
AcDbEntity
  8
0
100
AcDbBlockEnd
  0
BLOCK
  5
70
330
6F
100
AcDbEntity
  8
0
100
AcDbBlockBegin
  2
*D14
 70
    1
 10
0
 20
0
  3
*D14
  1

  0
LINE
  5
BA
100
AcDbEntity
  8
dimension
  6
ByBlock
 62
    0
370
   -2
100
AcDbLine
 10
9801.316282072799
 20
1006.378463621231
 11
9601.316282072799
 21
1006.378463621231
  0
SOLID
  5
BB
100
AcDbEntity
  8
dimension
  6
ByBlock
 62
    0
370
   -2
100
AcDbTrace
 10
9801.316282072799
 20
1006.378463621231
 30
0
 11
9771.316282072799
 21
1001.383047727957
 31
0
 12
9771.316282072799
 22
1011.373879514505
 32
0
 13
9771.316282072799
 23
1011.373879514505
 33
0
  0
SOLID
  5
BC
100
AcDbEntity
  8
dimension
  6
ByBlock
 62
    0
370
   -2
100
AcDbTrace
 10
9601.316282072799
 20
1006.378463621231
 30
0
 11
9631.316282072799
 21
1011.373879514505
 31
0
 12
9631.316282072799
 22
1001.383047727957
 32
0
 13
9631.316282072799
 23
1001.383047727957
 33
0
  0
MTEXT
  5
BD
100
AcDbEntity
  8
dimension
  6
CONTINUOUS
 62
    0
370
   -2
100
AcDbMText
 10
9701.316282072799
 20
1106.378463621231
 30
0
 40
100
 41
200
 71
    5
 72
    1
  1
200
  7
standard
210
0
220
0
230
1
 50
360
 73
    2
 44
1
  0
LINE
  5
BE
100
AcDbEntity
  8
dimension
  6
ByBlock
 62
    0
370
   -2
100
AcDbLine
 10
9801.316282072799
 20
786.2245709640001
 11
9801.316282072799
 21
1056.378463621231
  0
LINE
  5
BF
100
AcDbEntity
  8
dimension
  6
ByBlock
 62
    0
370
   -2
100
AcDbLine
 10
9601.316282072799
 20
786.2245709640001
 11
9601.316282072799
 21
1056.378463621231
  0
ENDBLK
  5
71
330
6F
100
AcDbEntity
  8
0
100
AcDbBlockEnd
  0
BLOCK
  5
73
330
72
100
AcDbEntity
  8
0
100
AcDbBlockBegin
  2
*D16
 70
    1
 10
0
 20
0
  3
*D16
  1

  0
LINE
  5
C0
100
AcDbEntity
  8
dimension
  6
ByBlock
 62
    0
370
   -2
100
AcDbLine
 10
12177.3162821
 20
1286.031958623789
 11
-22.6837179272
 21
1286.031958623789
  0
SOLID
  5
C1
100
AcDbEntity
  8
dimension
  6
ByBlock
 62
    0
370
   -2
100
AcDbTrace
 10
12177.3162821
 20
1286.031958623789
 30
0
 11
12147.3162821
 21
1281.036542730514
 31
0
 12
12147.3162821
 22
1291.027374517063
 32
0
 13
12147.3162821
 23
1291.027374517063
 33
0
  0
SOLID
  5
C2
100
AcDbEntity
  8
dimension
  6
ByBlock
 62
    0
370
   -2
100
AcDbTrace
 10
-22.6837179272
 20
1286.031958623789
 30
0
 11
7.3162820728
 21
1291.027374517063
 31
0
 12
7.3162820728
 22
1281.036542730514
 32
0
 13
7.3162820728
 23
1281.036542730514
 33
0
  0
MTEXT
  5
C3
100
AcDbEntity
  8
dimension
  6
CONTINUOUS
 62
    0
370
   -2
100
AcDbMText
 10
6077.3162820864
 20
1386.031958623789
 30
0
 40
100
 41
333.3333333333333
 71
    5
 72
    1
  1
12200
  7
standard
210
0
220
0
230
1
 50
360
 73
    2
 44
1
  0
LINE
  5
C4
100
AcDbEntity
  8
dimension
  6
ByBlock
 62
    0
370
   -2
100
AcDbLine
 10
12177.3162821
 20
786.224570964
 11
12177.3162821
 21
1336.031958623789
  0
LINE
  5
C5
100
AcDbEntity
  8
dimension
  6
ByBlock
 62
    0
370
   -2
100
AcDbLine
 10
-22.6837179272
 20
786.224570964
 11
-22.6837179272
 21
1336.031958623789
  0
ENDBLK
  5
74
330
72
100
AcDbEntity
  8
0
100
AcDbBlockEnd
  0
BLOCK
  5
76
330
75
100
AcDbEntity
  8
0
100
AcDbBlockBegin
  2
*D4
 70
    1
 10
0
 20
0
  3
*D4
  1

  0
LINE
  5
C6
100
AcDbEntity
  8
dimension
  6
ByBlock
 62
    0
370
   -2
100
AcDbLine
 10
6171.3162820728
 20
-1996.856895754006
 11
6821.3162820728
 21
-1996.856895754006
  0
SOLID
  5
C7
100
AcDbEntity
  8
dimension
  6
ByBlock
 62
    0
370
   -2
100
AcDbTrace
 10
6171.3162820728
 20
-1996.856895754006
 30
0
 11
6201.3162820728
 21
-1991.861479860732
 31
0
 12
6201.3162820728
 22
-2001.85231164728
 32
0
 13
6201.3162820728
 23
-2001.85231164728
 33
0
  0
SOLID
  5
C8
100
AcDbEntity
  8
dimension
  6
ByBlock
 62
    0
370
   -2
100
AcDbTrace
 10
6821.3162820728
 20
-1996.856895754006
 30
0
 11
6791.3162820728
 21
-2001.85231164728
 31
0
 12
6791.3162820728
 22
-1991.861479860732
 32
0
 13
6791.3162820728
 23
-1991.861479860732
 33
0
  0
MTEXT
  5
C9
100
AcDbEntity
  8
dimension
  6
CONTINUOUS
 62
    0
370
   -2
100
AcDbMText
 10
6496.3162820728
 20
-1896.856895754006
 30
0
 40
100
 41
200.0000000000124
 71
    5
 72
    1
  1
650
  7
standard
210
0
220
0
230
1
 50
0
 73
    2
 44
1
  0
LINE
  5
CA
100
AcDbEntity
  8
dimension
  6
ByBlock
 62
    0
370
   -2
100
AcDbLine
 10
6171.3162820728
 20
-1679.77542904
 11
6171.3162820728
 21
-2046.856895754006
  0
LINE
  5
CB
100
AcDbEntity
  8
dimension
  6
ByBlock
 62
    0
370
   -2
100
AcDbLine
 10
6821.3162820728
 20
-1679.77542904
 11
6821.3162820728
 21
-2046.856895754006
  0
ENDBLK
  5
77
330
75
100
AcDbEntity
  8
0
100
AcDbBlockEnd
  0
BLOCK
  5
79
330
78
100
AcDbEntity
  8
0
100
AcDbBlockBegin
  2
*D10
 70
    1
 10
0
 20
0
  3
*D10
  1

  0
LINE
  5
CC
100
AcDbEntity
  8
dimension
  6
ByBlock
 62
    0
370
   -2
100
AcDbLine
 10
2441.3162820728
 20
983.9313603434322
 11
2641.3162820728
 21
983.9313603434322
  0
SOLID
  5
CD
100
AcDbEntity
  8
dimension
  6
ByBlock
 62
    0
370
   -2
100
AcDbTrace
 10
2441.3162820728
 20
983.9313603434322
 30
0
 11
2471.3162820728
 21
988.9267762367062
 31
0
 12
2471.3162820728
 22
978.9359444501581
 32
0
 13
2471.3162820728
 23
978.9359444501581
 33
0
  0
SOLID
  5
CE
100
AcDbEntity
  8
dimension
  6
ByBlock
 62
    0
370
   -2
100
AcDbTrace
 10
2641.3162820728
 20
983.9313603434322
 30
0
 11
2611.3162820728
 21
978.9359444501581
 31
0
 12
2611.3162820728
 22
988.9267762367062
 32
0
 13
2611.3162820728
 23
988.9267762367062
 33
0
  0
MTEXT
  5
CF
100
AcDbEntity
  8
dimension
  6
CONTINUOUS
 62
    0
370
   -2
100
AcDbMText
 10
2541.3162820728
 20
1083.931360343432
 30
0
 40
100
 41
200
 71
    5
 72
    1
  1
200
  7
standard
210
0
220
0
230
1
 50
0
 73
    2
 44
1
  0
LINE
  5
D0
100
AcDbEntity
  8
dimension
  6
ByBlock
 62
    0
370
   -2
100
AcDbLine
 10
2441.3162820728
 20
786.2245709640001
 11
2441.3162820728
 21
1033.931360343432
  0
LINE
  5
D1
100
AcDbEntity
  8
dimension
  6
ByBlock
 62
    0
370
   -2
100
AcDbLine
 10
2641.3162820728
 20
786.2245709640001
 11
2641.3162820728
 21
1033.931360343432
  0
ENDBLK
  5
7A
330
78
100
AcDbEntity
  8
0
100
AcDbBlockEnd
  0
BLOCK
  5
7C
330
7B
100
AcDbEntity
  8
0
100
AcDbBlockBegin
  2
*D13
 70
    1
 10
0
 20
0
  3
*D13
  1

  0
LINE
  5
D2
100
AcDbEntity
  8
dimension
  6
ByBlock
 62
    0
370
   -2
100
AcDbLine
 10
11631.3162820728
 20
885.9737214950791
 11
9801.316282072799
 21
885.9737214950791
  0
SOLID
  5
D3
100
AcDbEntity
  8
dimension
  6
ByBlock
 62
    0
370
   -2
100
AcDbTrace
 10
11631.3162820728
 20
885.9737214950791
 30
0
 11
11601.3162820728
 21
880.978305601805
 31
0
 12
11601.3162820728
 22
890.9691373883531
 32
0
 13
11601.3162820728
 23
890.9691373883531
 33
0
  0
SOLID
  5
D4
100
AcDbEntity
  8
dimension
  6
ByBlock
 62
    0
370
   -2
100
AcDbTrace
 10
9801.316282072799
 20
885.9737214950791
 30
0
 11
9831.316282072799
 21
890.9691373883531
 31
0
 12
9831.316282072799
 22
880.978305601805
 32
0
 13
9831.316282072799
 23
880.978305601805
 33
0
  0
MTEXT
  5
D5
100
AcDbEntity
  8
dimension
  6
CONTINUOUS
 62
    0
370
   -2
100
AcDbMText
 10
10716.3162820728
 20
985.9737214950791
 30
0
 40
100
 41
255.5555555555617
 71
    5
 72
    1
  1
1830
  7
standard
210
0
220
0
230
1
 50
360
 73
    2
 44
1
  0
LINE
  5
D6
100
AcDbEntity
  8
dimension
  6
ByBlock
 62
    0
370
   -2
100
AcDbLine
 10
11631.3162820728
 20
786.2245709640001
 11
11631.3162820728
 21
935.9737214950791
  0
LINE
  5
D7
100
AcDbEntity
  8
dimension
  6
ByBlock
 62
    0
370
   -2
100
AcDbLine
 10
9801.316282072799
 20
786.2245709640001
 11
9801.316282072799
 21
935.9737214950791
  0
ENDBLK
  5
7D
330
7B
100
AcDbEntity
  8
0
100
AcDbBlockEnd
  0
BLOCK
  5
7F
330
7E
100
AcDbEntity
  8
0
100
AcDbBlockBegin
  2
*D1
 70
    1
 10
0
 20
0
  3
*D1
  1

  0
LINE
  5
D8
100
AcDbEntity
  8
dimension
  6
ByBlock
 62
    0
370
   -2
100
AcDbLine
 10
-403.588273912
 20
726.2245709640003
 11
-403.588273912
 21
-1713.77542904
  0
SOLID
  5
D9
100
AcDbEntity
  8
dimension
  6
ByBlock
 62
    0
370
   -2
100
AcDbTrace
 10
-403.588273912
 20
726.2245709640003
 30
0
 11
-398.5928580187259
 21
696.2245709640003
 31
0
 12
-408.583689805274
 22
696.2245709640003
 32
0
 13
-408.583689805274
 23
696.2245709640003
 33
0
  0
SOLID
  5
DA
100
AcDbEntity
  8
dimension
  6
ByBlock
 62
    0
370
   -2
100
AcDbTrace
 10
-403.588273912
 20
-1713.77542904
 30
0
 11
-408.583689805274
 21
-1683.77542904
 31
0
 12
-398.5928580187259
 22
-1683.77542904
 32
0
 13
-398.5928580187259
 23
-1683.77542904
 33
0
  0
MTEXT
  5
DB
100
AcDbEntity
  8
dimension
  6
CONTINUOUS
 62
    0
370
   -2
100
AcDbMText
 10
-503.588273912
 20
-493.7754290379999
 30
0
 40
100
 41
300
 71
    5
 72
    1
  1
2440
  7
standard
210
0
220
0
230
1
 50
90
 73
    2
 44
1
  0
LINE
  5
DC
100
AcDbEntity
  8
dimension
  6
ByBlock
 62
    0
370
   -2
100
AcDbLine
 10
-82.68371792720001
 20
726.2245709640001
 11
-453.588273912
 21
726.2245709640003
  0
LINE
  5
DD
100
AcDbEntity
  8
dimension
  6
ByBlock
 62
    0
370
   -2
100
AcDbLine
 10
-82.68371792720001
 20
-1713.77542904
 11
-453.588273912
 21
-1713.77542904
  0
ENDBLK
  5
80
330
7E
100
AcDbEntity
  8
0
100
AcDbBlockEnd
  0
BLOCK
  5
82
330
81
100
AcDbEntity
  8
0
100
AcDbBlockBegin
  2
*D12
 70
    1
 10
0
 20
0
  3
*D12
  1

  0
LINE
  5
DE
100
AcDbEntity
  8
dimension
  6
ByBlock
 62
    0
370
   -2
100
AcDbLine
 10
12177.3162821
 20
904.2412209073487
 11
11631.3162820728
 21
904.2412209073487
  0
SOLID
  5
DF
100
AcDbEntity
  8
dimension
  6
ByBlock
 62
    0
370
   -2
100
AcDbTrace
 10
12177.3162821
 20
904.2412209073487
 30
0
 11
12147.3162821
 21
899.2458050140747
 31
0
 12
12147.3162821
 22
909.2366368006228
 32
0
 13
12147.3162821
 23
909.2366368006228
 33
0
  0
SOLID
  5
E0
100
AcDbEntity
  8
dimension
  6
ByBlock
 62
    0
370
   -2
100
AcDbTrace
 10
11631.3162820728
 20
904.2412209073487
 30
0
 11
11661.3162820728
 21
909.2366368006228
 31
0
 12
11661.3162820728
 22
899.2458050140747
 32
0
 13
11661.3162820728
 23
899.2458050140747
 33
0
  0
MTEXT
  5
E1
100
AcDbEntity
  8
dimension
  6
CONTINUOUS
 62
    0
370
   -2
100
AcDbMText
 10
11904.3162820864
 20
1004.241220907349
 30
0
 40
100
 41
211.1111111111235
 71
    5
 72
    1
  1
546
  7
standard
210
0
220
0
230
1
 50
360
 73
    2
 44
1
  0
LINE
  5
E2
100
AcDbEntity
  8
dimension
  6
ByBlock
 62
    0
370
   -2
100
AcDbLine
 10
12177.3162821
 20
786.224570964
 11
12177.3162821
 21
954.2412209073487
  0
LINE
  5
E3
100
AcDbEntity
  8
dimension
  6
ByBlock
 62
    0
370
   -2
100
AcDbLine
 10
11631.3162820728
 20
786.2245709640001
 11
11631.3162820728
 21
954.2412209073487
  0
ENDBLK
  5
83
330
81
100
AcDbEntity
  8
0
100
AcDbBlockEnd
  0
ENDSEC
  0
SECTION
  2
ENTITIES
  0
LINE
  5
E4
100
AcDbEntity
  8
0
  6
ByLayer
 62
  256
370
   -1
100
AcDbLine
 10
21.3162820728
 20
-1669.77542904
 11
21.3162820728
 21
682.224570964
  0
LINE
  5
E5
100
AcDbEntity
  8
0
  6
ByLayer
 62
  256
370
   -1
100
AcDbLine
 10
-22.6837179272
 20
-1713.77542904
 11
-22.6837179272
 21
726.224570964
  0
LINE
  5
E6
100
AcDbEntity
  8
0
  6
ByLayer
 62
  256
370
   -1
100
AcDbLine
 10
12177.3162821
 20
-1713.77542904
 11
12177.3162821
 21
726.224570964
  0
LINE
  5
E7
100
AcDbEntity
  8
0
  6
ByLayer
 62
  256
370
   -1
100
AcDbLine
 10
-22.6837179272
 20
726.224570964
 11
12177.3162821
 21
726.224570964
  0
LINE
  5
E8
100
AcDbEntity
  8
0
  6
ByLayer
 62
  256
370
   -1
100
AcDbLine
 10
-22.6837179272
 20
-1713.77542904
 11
12177.3162821
 21
-1713.77542904
  0
DIMENSION
  5
E9
100
AcDbEntity
  8
dimension
  6
ByLayer
 62
  256
370
   -1
100
AcDbDimension
  2
*D1
 10
-403.588273912
 20
-1713.77542904
 30
0
 11
-503.588273912
 21
-493.7754290379999
 31
0
 70
   32
 71
    5
  3
Standard
 53
0
210
0
220
0
230
1
100
AcDbAlignedDimension
 13
-22.6837179272
 23
726.224570964
 33
0
 14
-22.6837179272
 24
-1713.77542904
 34
0
 50
90
100
AcDbRotatedDimension
  0
DIMENSION
  5
EA
100
AcDbEntity
  8
dimension
  6
ByLayer
 62
  256
370
   -1
100
AcDbDimension
  2
*D2
 10
-196.4121536806926
 20
682.224570964
 30
0
 11
-296.4121536806926
 21
-493.7754290380001
 31
0
 70
   32
 71
    5
  3
Standard
 53
0
210
0
220
0
230
1
100
AcDbAlignedDimension
 13
21.3162820728
 23
-1669.77542904
 33
0
 14
21.3162820728
 24
682.224570964
 34
0
 50
90
100
AcDbRotatedDimension
  0
LINE
  5
EB
100
AcDbEntity
  8
walls
  6
ByLayer
 62
  256
370
   -1
100
AcDbLine
 10
71.31628207279999
 20
-1619.77542904
 11
71.31628207279999
 21
632.224570964
  0
LINE
  5
EC
100
AcDbEntity
  8
0
  6
ByLayer
 62
  256
370
   -1
100
AcDbLine
 10
12177.3162821
 20
677.724570964
 11
12053.3162821
 21
677.724570964
  0
LINE
  5
ED
100
AcDbEntity
  8
0
  6
ByLayer
 62
  256
370
   -1
100
AcDbLine
 10
12177.3162821
 20
-1665.275429036
 11
12053.3162821
 21
-1665.275429036
  0
LINE
  5
EE
100
AcDbEntity
  8
0
  6
ByLayer
 62
  256
370
   -1
100
AcDbLine
 10
12127.3162821
 20
677.724570964
 11
12127.3162821
 21
-1659.289874294531
  0
LINE
  5
EF
100
AcDbEntity
  8
walls
  6
ByLayer
 62
  256
370
   -1
100
AcDbLine
 10
12122.3162821
 20
420.724570964
 11
12022.3162821
 21
420.724570964
  0
LINE
  5
F0
100
AcDbEntity
  8
walls
  6
ByLayer
 62
  256
370
   -1
100
AcDbLine
 10
12122.3162821
 20
-1408.275429036
 11
12022.3162821
 21
-1408.275429036
  0
LINE
  5
F1
100
AcDbEntity
  8
0
  6
DASHEDTINY
 62
  256
370
   -1
100
AcDbLine
 10
12053.3162821
 20
-1669.77542904
 11
12053.3162821
 21
682.224570964
  0
LINE
  5
F2
100
AcDbEntity
  8
sliders
  6
ByLayer
 62
  256
370
   -1
100
AcDbLine
 10
12072.3162821
 20
420.724570964
 11
12072.3162821
 21
-1408.275429036
  0
LINE
  5
F3
100
AcDbEntity
  8
sliders
  6
ByLayer
 62
  256
370
   -1
100
AcDbLine
 10
12122.3162821
 20
-503.7754290359999
 11
12072.3162821
 21
-503.7754290359999
  0
LINE
  5
F4
100
AcDbEntity
  8
sliders
  6
ByLayer
 62
  256
370
   -1
100
AcDbLine
 10
12072.3162821
 20
-483.7754290359999
 11
12022.3162821
 21
-483.7754290359999
  0
LINE
  5
F5
100
AcDbEntity
  8
sliders
  6
ByLayer
 62
  256
370
   -1
100
AcDbLine
 10
12022.3162821
 20
-483.7754290359998
 11
12022.3162821
 21
-1619.77542904
  0
LINE
  5
F6
100
AcDbEntity
  8
sliders
  6
ByLayer
 62
  256
370
   -1
100
AcDbLine
 10
12122.3162821
 20
677.724570964
 11
12122.3162821
 21
-503.7754290359998
  0
LINE
  5
F7
100
AcDbEntity
  8
walls
  6
ByLayer
 62
  256
370
   -1
100
AcDbLine
 10
12022.3162821
 20
420.724570964
 11
12022.3162821
 21
632.224570964
  0
MTEXT
  5
F8
100
AcDbEntity
  8
text
  6
ByLayer
 62
  256
370
   -1
100
AcDbMText
 10
4470.714736160852
 20
-2389.681203115267
 30
0
 40
100
 41
5388.889010863801
 71
    1
 72
    1
  1
Standard 12m (40) container with interior wall and 6 foot glass slidding door
  7
standard
210
0
220
0
230
1
 50
0
 73
    2
 44
1
  0
LINE
  5
F9
100
AcDbEntity
  8
walls
  6
ByLayer
 62
  256
370
   -1
100
AcDbLine
 10
5271.3162820728
 20
582.224570964
 11
5371.3162820728
 21
582.224570964
  0
LINE
  5
FA
100
AcDbEntity
  8
walls
  6
ByLayer
 62
  256
370
   -1
100
AcDbLine
 10
6871.3162820728
 20
582.224570964
 11
6971.3162820728
 21
582.224570964
  0
LINE
  5
FB
100
AcDbEntity
  8
walls
  6
ByLayer
 62
  256
370
   -1
100
AcDbLine
 10
6871.3162820728
 20
-1569.77542904
 11
6971.3162820728
 21
-1569.77542904
  0
LINE
  5
FC
100
AcDbEntity
  8
walls
  6
ByLayer
 62
  256
370
   -1
100
AcDbLine
 10
5271.3162820728
 20
-1569.77542904
 11
5371.3162820728
 21
-1569.77542904
  0
LINE
  5
FD
100
AcDbEntity
  8
walls
  6
ByLayer
 62
  256
370
   -1
100
AcDbLine
 10
6071.3162820728
 20
-1619.77542904
 11
6071.3162820728
 21
632.224570964
  0
LINE
  5
FE
100
AcDbEntity
  8
walls
  6
ByLayer
 62
  256
370
   -1
100
AcDbLine
 10
6171.3162820728
 20
-1619.77542904
 11
6171.3162820728
 21
632.224570964
  0
LINE
  5
FF
100
AcDbEntity
  8
walls
  6
ByLayer
 62
  256
370
   -1
100
AcDbLine
 10
5271.3162820728
 20
582.224570964
 11
5271.3162820728
 21
632.224570964
  0
LINE
  5
100
100
AcDbEntity
  8
walls
  6
ByLayer
 62
  256
370
   -1
100
AcDbLine
 10
5371.3162820728
 20
586.13876078979
 11
5371.3162820728
 21
632.224570964
  0
LINE
  5
101
100
AcDbEntity
  8
walls
  6
ByLayer
 62
  256
370
   -1
100
AcDbLine
 10
6871.3162820728
 20
582.224570964
 11
6871.3162820728
 21
632.224570964
  0
LINE
  5
102
100
AcDbEntity
  8
walls
  6
ByLayer
 62
  256
370
   -1
100
AcDbLine
 10
6971.3162820728
 20
582.224570964
 11
6971.3162820728
 21
632.224570964
  0
LINE
  5
103
100
AcDbEntity
  8
walls
  6
ByLayer
 62
  256
370
   -1
100
AcDbLine
 10
6871.3162820728
 20
-1619.77542904
 11
6871.3162820728
 21
-1569.77542904
  0
LINE
  5
104
100
AcDbEntity
  8
walls
  6
ByLayer
 62
  256
370
   -1
100
AcDbLine
 10
5371.3162820728
 20
-1619.77542904
 11
5371.3162820728
 21
-1569.77542904
  0
LINE
  5
105
100
AcDbEntity
  8
walls
  6
ByLayer
 62
  256
370
   -1
100
AcDbLine
 10
5271.3162820728
 20
-1619.77542904
 11
5271.3162820728
 21
-1569.77542904
  0
LINE
  5
106
100
AcDbEntity
  8
cabinates
  6
ByLayer
 62
  256
370
   -1
100
AcDbLine
 10
5421.3162820728
 20
-1619.77542904
 11
5421.3162820728
 21
632.2245709640001
  0
LINE
  5
107
100
AcDbEntity
  8
cabinates
  6
ByLayer
 62
  256
370
   -1
100
AcDbLine
 10
6821.3162820728
 20
-1619.77542904
 11
6821.3162820728
 21
632.2245709639999
  0
LINE
  5
108
100
AcDbEntity
  8
bogus
  6
ByLayer
 62
  256
370
   -1
100
AcDbLine
 10
4471.3162820728
 20
632.224570964
 11
4471.3162820728
 21
726.2245709640001
  0
LINE
  5
109
100
AcDbEntity
  8
bogus
  6
ByLayer
 62
  256
370
   -1
100
AcDbLine
 10
2641.3162820728
 20
632.224570964
 11
2641.3162820728
 21
726.2245709640001
  0
MTEXT
  5
10A
100
AcDbEntity
  8
text
  6
ByLayer
 62
  256
370
   -1
100
AcDbMText
 10
1712.578069900163
 20
-11.41718713266775
 30
0
 40
75
 41
497.9166666666702
 71
    1
 72
    1
  1
Bedroom 1
  7
standard
210
0
220
0
230
1
 50
0
 73
    2
 44
1
  0
MTEXT
  5
10B
100
AcDbEntity
  8
text
  6
ByLayer
 62
  256
370
   -1
100
AcDbMText
 10
8117.620051326773
 20
22.83437426533551
 30
0
 40
75
 41
514.5833333333368
 71
    1
 72
    1
  1
Bedroom 2
  7
standard
210
0
220
0
230
1
 50
0
 73
    2
 44
1
  0
MTEXT
  5
10C
100
AcDbEntity
  8
sliders
  6
ByLayer
 62
  256
370
   -1
100
AcDbMText
 10
3240.800535731716
 20
542.4716625467229
 30
0
 40
50
 41
640.2778034921455
 71
    1
 72
    1
  1
6 foot sliding door
  7
standard
210
0
220
0
230
1
 50
0
 73
    2
 44
1
  0
MTEXT
  5
10D
100
AcDbEntity
  8
sliders
  6
ByLayer
 62
  256
370
   -1
100
AcDbMText
 10
11896.96473723158
 20
-729.5308565283516
 30
0
 40
50
 41
640.2778034921455
 71
    1
 72
    1
  1
6 foot sliding door
  7
standard
210
0
220
0
230
1
 50
90
 73
    2
 44
1
  0
LINE
  5
10E
100
AcDbEntity
  8
bogus
  6
ByLayer
 62
  256
370
   -1
100
AcDbLine
 10
2441.3162820728
 20
632.224570964
 11
2441.3162820728
 21
726.2245709640001
  0
LINE
  5
10F
100
AcDbEntity
  8
bogus
  6
ByLayer
 62
  256
370
   -1
100
AcDbLine
 10
611.3162820728003
 20
632.2245709640002
 11
611.3162820728003
 21
726.2245709640003
  0
LINE
  5
110
100
AcDbEntity
  8
0
  6
ByLayer
 62
  256
370
   -1
100
AcDbLine
 10
21.3162820728
 20
682.224570964
 11
611.3162820728003
 21
682.224570964
  0
LINE
  5
111
100
AcDbEntity
  8
0
  6
ByLayer
 62
  256
370
   -1
100
AcDbLine
 10
2441.3162820728
 20
682.224570964
 11
2641.3162820728
 21
682.224570964
  0
LINE
  5
112
100
AcDbEntity
  8
bogus
  6
ByLayer
 62
  256
370
   -1
100
AcDbLine
 10
11631.3162820728
 20
726.2245709640001
 11
11631.3162820728
 21
632.2245709639989
  0
LINE
  5
113
100
AcDbEntity
  8
bogus
  6
ByLayer
 62
  256
370
   -1
100
AcDbLine
 10
9801.316282072799
 20
632.224570964
 11
9801.316282072799
 21
726.2245709640001
  0
LINE
  5
114
100
AcDbEntity
  8
bogus
  6
ByLayer
 62
  256
370
   -1
100
AcDbLine
 10
9601.316282072799
 20
632.224570964
 11
9601.316282072799
 21
726.2245709640001
  0
LINE
  5
115
100
AcDbEntity
  8
bogus
  6
ByLayer
 62
  256
370
   -1
100
AcDbLine
 10
7771.316282072801
 20
632.224570964
 11
7771.3162820728
 21
726.2245709640001
  0
LINE
  5
116
100
AcDbEntity
  8
0
  6
ByLayer
 62
  256
370
   -1
100
AcDbLine
 10
4471.3162820728
 20
682.224570964
 11
7771.316282072801
 21
682.224570964
  0
LINE
  5
117
100
AcDbEntity
  8
0
  6
ByLayer
 62
  256
370
   -1
100
AcDbLine
 10
9601.316282072799
 20
682.224570964
 11
9801.316282072799
 21
682.224570964
  0
LINE
  5
118
100
AcDbEntity
  8
0
  6
ByLayer
 62
  256
370
   -1
100
AcDbLine
 10
11631.3162820728
 20
682.224570964
 11
12053.3162821
 21
682.224570964
  0
MTEXT
  5
119
100
AcDbEntity
  8
sliders
  6
ByLayer
 62
  256
370
   -1
100
AcDbMText
 10
10171.34367275121
 20
531.9495828852647
 30
0
 40
50
 41
640.2778034921455
 71
    1
 72
    1
  1
6 foot sliding door
  7
standard
210
0
220
0
230
1
 50
0
 73
    2
 44
1
  0
MTEXT
  5
11A
100
AcDbEntity
  8
sliders
  6
ByLayer
 62
  256
370
   -1
100
AcDbMText
 10
8300.751732934899
 20
531.9495828852647
 30
0
 40
50
 41
640.2778034921455
 71
    1
 72
    1
  1
6 foot sliding door
  7
standard
210
0
220
0
230
1
 50
0
 73
    2
 44
1
  0
MTEXT
  5
11B
100
AcDbEntity
  8
sliders
  6
ByLayer
 62
  256
370
   -1
100
AcDbMText
 10
1191.04096167992
 20
540.7179826031536
 30
0
 40
50
 41
640.2778034921455
 71
    1
 72
    1
  1
6 foot sliding door
  7
standard
210
0
220
0
230
1
 50
0
 73
    2
 44
1
  0
LINE
  5
11C
100
AcDbEntity
  8
tatami
  6
ByLayer
 62
  256
370
   -1
100
AcDbLine
 10
171.3162820728
 20
461.224570964
 11
171.3162820728
 21
-1448.775429036
  0
LINE
  5
11D
100
AcDbEntity
  8
tatami
  6
ByLayer
 62
  256
370
   -1
100
AcDbLine
 10
171.3162820728
 20
-1448.775429036
 11
1126.3162820728
 21
-1448.775429036
  0
LINE
  5
11E
100
AcDbEntity
  8
tatami
  6
ByLayer
 62
  256
370
   -1
100
AcDbLine
 10
1126.3162820728
 20
-1448.775429036
 11
1126.3162820728
 21
461.224570964
  0
LINE
  5
11F
100
AcDbEntity
  8
tatami
  6
ByLayer
 62
  256
370
   -1
100
AcDbLine
 10
1126.3162820728
 20
461.224570964
 11
171.3162820728
 21
461.224570964
  0
LINE
  5
120
100
AcDbEntity
  8
tatami
  6
ByLayer
 62
  256
370
   -1
100
AcDbLine
 10
1126.3162820728
 20
461.224570964
 11
3036.3162820728
 21
461.224570964
  0
LINE
  5
121
100
AcDbEntity
  8
tatami
  6
ByLayer
 62
  256
370
   -1
100
AcDbLine
 10
3036.3162820728
 20
461.224570964
 11
3036.3162820728
 21
-493.7754290359999
  0
LINE
  5
122
100
AcDbEntity
  8
tatami
  6
ByLayer
 62
  256
370
   -1
100
AcDbLine
 10
3036.3162820728
 20
-493.7754290359999
 11
1126.3162820728
 21
-493.7754290359999
  0
LINE
  5
123
100
AcDbEntity
  8
tatami
  6
ByLayer
 62
  256
370
   -1
100
AcDbLine
 10
1126.3162820728
 20
-1448.775429036
 11
3036.3162820728
 21
-1448.775429036
  0
LINE
  5
124
100
AcDbEntity
  8
tatami
  6
ByLayer
 62
  256
370
   -1
100
AcDbLine
 10
3036.3162820728
 20
-1448.775429036
 11
3036.3162820728
 21
-493.7754290359999
  0
LINE
  5
125
100
AcDbEntity
  8
tatami
  6
ByLayer
 62
  256
370
   -1
100
AcDbLine
 10
3036.3162820728
 20
-1448.775429036
 11
3991.3162820728
 21
-1448.775429036
  0
LINE
  5
126
100
AcDbEntity
  8
tatami
  6
ByLayer
 62
  256
370
   -1
100
AcDbLine
 10
3991.3162820728
 20
-1448.775429036
 11
3991.3162820728
 21
461.224570964
  0
LINE
  5
127
100
AcDbEntity
  8
tatami
  6
ByLayer
 62
  256
370
   -1
100
AcDbLine
 10
3991.3162820728
 20
461.224570964
 11
3036.3162820728
 21
461.224570964
  0
LINE
  5
128
100
AcDbEntity
  8
tatami
  6
ByLayer
 62
  256
370
   -1
100
AcDbLine
 10
11877.3162821
 20
-1448.775429036
 11
11877.3162821
 21
461.224570964
  0
LINE
  5
129
100
AcDbEntity
  8
tatami
  6
ByLayer
 62
  256
370
   -1
100
AcDbLine
 10
11877.3162821
 20
461.224570964
 11
10922.3162821
 21
461.224570964
  0
LINE
  5
12A
100
AcDbEntity
  8
tatami
  6
ByLayer
 62
  256
370
   -1
100
AcDbLine
 10
10922.3162821
 20
461.224570964
 11
10922.3162821
 21
-1448.775429036
  0
LINE
  5
12B
100
AcDbEntity
  8
tatami
  6
ByLayer
 62
  256
370
   -1
100
AcDbLine
 10
10922.3162821
 20
-1448.775429036
 11
11877.3162821
 21
-1448.775429036
  0
LINE
  5
12C
100
AcDbEntity
  8
tatami
  6
ByLayer
 62
  256
370
   -1
100
AcDbLine
 10
10922.3162821
 20
-1448.775429036
 11
9012.316282100001
 21
-1448.775429036
  0
LINE
  5
12D
100
AcDbEntity
  8
tatami
  6
ByLayer
 62
  256
370
   -1
100
AcDbLine
 10
9012.316282100001
 20
-1448.775429036
 11
9012.316282100001
 21
-493.7754290359999
  0
LINE
  5
12E
100
AcDbEntity
  8
tatami
  6
ByLayer
 62
  256
370
   -1
100
AcDbLine
 10
9012.316282100001
 20
-493.7754290359999
 11
10922.3162821
 21
-493.7754290359999
  0
LINE
  5
12F
100
AcDbEntity
  8
tatami
  6
ByLayer
 62
  256
370
   -1
100
AcDbLine
 10
10922.3162821
 20
461.224570964
 11
9012.316282100001
 21
461.224570964
  0
LINE
  5
130
100
AcDbEntity
  8
tatami
  6
ByLayer
 62
  256
370
   -1
100
AcDbLine
 10
9012.316282100001
 20
461.224570964
 11
9012.316282100001
 21
-493.7754290359999
  0
LINE
  5
131
100
AcDbEntity
  8
tatami
  6
ByLayer
 62
  256
370
   -1
100
AcDbLine
 10
9012.316282100001
 20
461.224570964
 11
8057.316282100001
 21
461.224570964
  0
LINE
  5
132
100
AcDbEntity
  8
tatami
  6
ByLayer
 62
  256
370
   -1
100
AcDbLine
 10
8057.316282100001
 20
461.224570964
 11
8057.316282100001
 21
-1448.775429036
  0
LINE
  5
133
100
AcDbEntity
  8
tatami
  6
ByLayer
 62
  256
370
   -1
100
AcDbLine
 10
8057.316282100001
 20
-1448.775429036
 11
9012.316282100001
 21
-1448.775429036
  0
LINE
  5
134
100
AcDbEntity
  8
walls
  6
ByLayer
 62
  256
370
   -1
100
AcDbLine
 10
6971.316282072801
 20
-1619.77542904
 11
12022.3162821
 21
-1619.77542904
  0
LINE
  5
135
100
AcDbEntity
  8
walls
  6
ByLayer
 62
  256
370
   -1
100
AcDbLine
 10
6971.3162820728
 20
-1619.77542904
 11
6971.316282072801
 21
-1569.77542904
  0
LINE
  5
136
100
AcDbEntity
  8
walls
  6
ByLayer
 62
  256
370
   -1
100
AcDbLine
 10
6971.3162820728
 20
632.224570964
 11
12022.3162821
 21
632.224570964
  0
LINE
  5
137
100
AcDbEntity
  8
walls
  6
ByLayer
 62
  256
370
   -1
100
AcDbLine
 10
71.31628207279999
 20
632.224570964
 11
5271.3162820728
 21
632.224570964
  0
LINE
  5
138
100
AcDbEntity
  8
walls
  6
ByLayer
 62
  256
370
   -1
100
AcDbLine
 10
71.31628207279999
 20
-1619.77542904
 11
5271.3162820728
 21
-1619.77542904
  0
LINE
  5
139
100
AcDbEntity
  8
walls
  6
ByLayer
 62
  256
370
   -1
100
AcDbLine
 10
5371.3162820728
 20
-1619.77542904
 11
6071.3162820728
 21
-1619.77542904
  0
LINE
  5
13A
100
AcDbEntity
  8
walls
  6
ByLayer
 62
  256
370
   -1
100
AcDbLine
 10
6171.3162820728
 20
-1619.77542904
 11
6871.3162820728
 21
-1619.77542904
  0
LINE
  5
13B
100
AcDbEntity
  8
walls
  6
ByLayer
 62
  256
370
   -1
100
AcDbLine
 10
5371.3162820728
 20
632.224570964
 11
6071.3162820728
 21
632.224570964
  0
LINE
  5
13C
100
AcDbEntity
  8
walls
  6
ByLayer
 62
  256
370
   -1
100
AcDbLine
 10
6171.3162820728
 20
632.224570964
 11
6871.3162820728
 21
632.224570964
  0
MTEXT
  5
13D
100
AcDbEntity
  8
sliders
  6
ByLayer
 62
  256
370
   -1
100
AcDbMText
 10
7365.10099051651
 20
-1826.749941226842
 30
0
 40
50
 41
287.5
 71
    1
 72
    1
  1
800 door
  7
standard
210
0
220
0
230
1
 50
0
 73
    2
 44
1
  0
LINE
  5
13E
100
AcDbEntity
  8
walls
  6
ByLayer
 62
  256
370
   -1
100
AcDbLine
 10
7071.316282072802
 20
-1713.77542904
 11
7071.316282072801
 21
-1619.77542904
  0
LINE
  5
13F
100
AcDbEntity
  8
walls
  6
ByLayer
 62
  256
370
   -1
100
AcDbLine
 10
7871.316282072801
 20
-1713.77542904
 11
7871.316282072801
 21
-1619.77542904
  0
LINE
  5
140
100
AcDbEntity
  8
0
  6
ByLayer
 62
  256
370
   -1
100
AcDbLine
 10
7871.316282072802
 20
-1669.77542904
 11
12053.3162821
 21
-1669.77542904
  0
MTEXT
  5
141
100
AcDbEntity
  8
tatami
  6
CONTINUOUS
 62
  256
370
   -1
100
AcDbMText
 10
9510.089422026484
 20
-534.9892947874851
 30
0
 40
50
 41
994.4444444444641
 71
    1
 72
    1
  1
tatami mat Kyoto 1.91x.955 m
  7

210
0
220
0
230
1
 50
0
 73
    2
 44
1
  0
MTEXT
  5
142
100
AcDbEntity
  8
tatami
  6
CONTINUOUS
 62
  256
370
   -1
100
AcDbMText
 10
1566.62074959622
 20
-555.3319821329884
 30
0
 40
50
 41
994.4444444444641
 71
    1
 72
    1
  1
tatami mat Kyoto 1.91x.955 m
  7

210
0
220
0
230
1
 50
0
 73
    2
 44
1
  0
MTEXT
  5
143
100
AcDbEntity
  8
sliders
  6
ByLayer
 62
  256
370
   -1
100
AcDbMText
 10
4654.913622756113
 20
-1817.616191520708
 30
0
 40
50
 41
287.5
 71
    1
 72
    1
  1
800 door
  7
standard
210
0
220
0
230
1
 50
0
 73
    2
 44
1
  0
LINE
  5
144
100
AcDbEntity
  8
walls
  6
ByLayer
 62
  256
370
   -1
100
AcDbLine
 10
4371.316282072799
 20
-1713.77542904
 11
4371.316282072799
 21
-1619.77542904
  0
LINE
  5
145
100
AcDbEntity
  8
walls
  6
ByLayer
 62
  256
370
   -1
100
AcDbLine
 10
5171.3162820728
 20
-1713.77542904
 11
5171.3162820728
 21
-1619.77542904
  0
LINE
  5
146
100
AcDbEntity
  8
0
  6
ByLayer
 62
  256
370
   -1
100
AcDbLine
 10
21.3162820728
 20
-1669.77542904
 11
4371.316282072799
 21
-1669.77542904
  0
LINE
  5
147
100
AcDbEntity
  8
0
  6
ByLayer
 62
  256
370
   -1
100
AcDbLine
 10
5171.3162820728
 20
-1669.77542904
 11
7071.316282072802
 21
-1669.77542904
  0
MTEXT
  5
148
100
AcDbEntity
  8
text
  6
ByLayer
 62
  256
370
   -1
100
AcDbMText
 10
5719.334855988609
 20
-547.1481423962938
 30
0
 40
50
 41
172.2222479365852
 71
    1
 72
    1
  1
Closit
  7

210
0
220
0
230
1
 50
90
 73
    2
 44
1
  0
MTEXT
  5
149
100
AcDbEntity
  8
text
  6
ByLayer
 62
  256
370
   -1
100
AcDbMText
 10
6467.571631915164
 20
-556.5011020953757
 30
0
 40
50
 41
172.2222479365852
 71
    1
 72
    1
  1
Closit
  7

210
0
220
0
230
1
 50
90
 73
    2
 44
1
  0
MTEXT
  5
14A
100
AcDbEntity
  8
walls
  6
ByLayer
 62
  256
370
   -1
100
AcDbMText
 10
4452.702981740675
 20
-2899.965531697772
 30
0
 40
100
 41
2788.889197461241
 71
    1
 72
    1
  1
This design assumes enclosed deck/walk\Pway around the container, simular to \Ptraditional Japanese design.
  7

210
0
220
0
230
1
 50
0
 73
    2
 44
1
  0
DIMENSION
  5
14B
100
AcDbEntity
  8
dimension
  6
ByLayer
 62
  256
370
   -1
100
AcDbDimension
  2
*D3
 10
7871.316282072801
 20
-2005.040735490702
 30
0
 11
10024.3162820864
 21
-1905.040735490702
 31
0
 70
   32
 71
    5
  3
Standard
 53
0
210
0
220
0
230
1
100
AcDbAlignedDimension
 13
12177.3162821
 23
-1713.77542904
 33
0
 14
7871.316282072801
 24
-1713.77542904
 34
0
100
AcDbRotatedDimension
  0
DIMENSION
  5
14C
100
AcDbEntity
  8
dimension
  6
ByLayer
 62
  256
370
   -1
100
AcDbDimension
  2
*D4
 10
6821.3162820728
 20
-1996.856895754006
 30
0
 11
6496.3162820728
 21
-1896.856895754006
 31
0
 70
   32
 71
    5
  3
Standard
 53
0
210
0
220
0
230
1
100
AcDbAlignedDimension
 13
6171.3162820728
 23
-1619.77542904
 33
0
 14
6821.3162820728
 24
-1619.77542904
 34
0
100
AcDbRotatedDimension
  0
DIMENSION
  5
14D
100
AcDbEntity
  8
dimension
  6
ByLayer
 62
  256
370
   -1
100
AcDbDimension
  2
*D5
 10
5421.3162820728
 20
-1996.856895754006
 30
0
 11
5746.3162820728
 21
-1896.856895754006
 31
0
 70
   32
 71
    5
  3
Standard
 53
0
210
0
220
0
230
1
100
AcDbAlignedDimension
 13
6071.3162820728
 23
-1619.77542904
 33
0
 14
5421.3162820728
 24
-1619.77542904
 34
0
100
AcDbRotatedDimension
  0
DIMENSION
  5
14E
100
AcDbEntity
  8
dimension
  6
ByLayer
 62
  256
370
   -1
100
AcDbDimension
  2
*D6
 10
5171.3162820728
 20
-2184.851385705556
 30
0
 11
5221.3162820728
 21
-2084.851385705556
 31
0
 70
   32
 71
    5
  3
Standard
 53
0
210
0
220
0
230
1
100
AcDbAlignedDimension
 13
5271.3162820728
 23
-1619.77542904
 33
0
 14
5171.3162820728
 24
-1713.77542904
 34
0
100
AcDbRotatedDimension
  0
DIMENSION
  5
14F
100
AcDbEntity
  8
dimension
  6
ByLayer
 62
  256
370
   -1
100
AcDbDimension
  2
*D7
 10
-22.68371792720004
 20
-2301.704925945969
 30
0
 11
3024.3162820728
 21
-2201.704925945969
 31
0
 70
   32
 71
    5
  3
Standard
 53
0
210
0
220
0
230
1
100
AcDbAlignedDimension
 13
6071.3162820728
 23
-1619.77542904
 33
0
 14
-22.6837179272
 24
-1713.77542904
 34
0
100
AcDbRotatedDimension
  0
DIMENSION
  5
150
100
AcDbEntity
  8
dimension
  6
ByLayer
 62
  256
370
   -1
100
AcDbDimension
  2
*D8
 10
611.3162820728003
 20
901.6253149915101
 30
0
 11
294.3162820728002
 21
1001.62531499151
 31
0
 70
   32
 71
    5
  3
Standard
 53
0
210
0
220
0
230
1
100
AcDbAlignedDimension
 13
-22.6837179272
 23
726.224570964
 33
0
 14
611.3162820728003
 24
726.2245709640003
 34
0
100
AcDbRotatedDimension
  0
DIMENSION
  5
151
100
AcDbEntity
  8
dimension
  6
ByLayer
 62
  256
370
   -1
100
AcDbDimension
  2
*D9
 10
2441.3162820728
 20
901.6253149915101
 30
0
 11
1526.3162820728
 21
1001.62531499151
 31
0
 70
   32
 71
    5
  3
Standard
 53
0
210
0
220
0
230
1
100
AcDbAlignedDimension
 13
611.3162820728003
 23
726.2245709640001
 33
0
 14
2441.3162820728
 24
726.2245709640001
 34
0
100
AcDbRotatedDimension
  0
DIMENSION
  5
152
100
AcDbEntity
  8
dimension
  6
ByLayer
 62
  256
370
   -1
100
AcDbDimension
  2
*D10
 10
2641.3162820728
 20
983.9313603434322
 30
0
 11
2541.3162820728
 21
1083.931360343432
 31
0
 70
   32
 71
    5
  3
Standard
 53
0
210
0
220
0
230
1
100
AcDbAlignedDimension
 13
2441.3162820728
 23
726.2245709640001
 33
0
 14
2641.3162820728
 24
726.2245709640001
 34
0
100
AcDbRotatedDimension
  0
DIMENSION
  5
153
100
AcDbEntity
  8
dimension
  6
ByLayer
 62
  256
370
   -1
100
AcDbDimension
  2
*D11
 10
4471.3162820728
 20
901.6253149915101
 30
0
 11
3556.3162820728
 21
1001.62531499151
 31
0
 70
   32
 71
    5
  3
Standard
 53
0
210
0
220
0
230
1
100
AcDbAlignedDimension
 13
2641.3162820728
 23
726.2245709640001
 33
0
 14
4471.3162820728
 24
726.2245709640001
 34
0
100
AcDbRotatedDimension
  0
DIMENSION
  5
154
100
AcDbEntity
  8
dimension
  6
ByLayer
 62
  256
370
   -1
100
AcDbDimension
  2
*D12
 10
11631.3162820728
 20
904.2412209073487
 30
0
 11
11904.3162820864
 21
1004.241220907349
 31
0
 70
   32
 71
    5
  3
Standard
 53
0
210
0
220
0
230
1
100
AcDbAlignedDimension
 13
12177.3162821
 23
726.224570964
 33
0
 14
11631.3162820728
 24
726.2245709640001
 34
0
100
AcDbRotatedDimension
  0
DIMENSION
  5
155
100
AcDbEntity
  8
dimension
  6
ByLayer
 62
  256
370
   -1
100
AcDbDimension
  2
*D13
 10
9801.316282072799
 20
885.9737214950791
 30
0
 11
10716.3162820728
 21
985.9737214950791
 31
0
 70
   32
 71
    5
  3
Standard
 53
0
210
0
220
0
230
1
100
AcDbAlignedDimension
 13
11631.3162820728
 23
726.2245709640001
 33
0
 14
9801.316282072799
 24
726.2245709640001
 34
0
100
AcDbRotatedDimension
  0
DIMENSION
  5
156
100
AcDbEntity
  8
dimension
  6
ByLayer
 62
  256
370
   -1
100
AcDbDimension
  2
*D14
 10
9601.316282072799
 20
1006.378463621231
 30
0
 11
9701.316282072799
 21
1106.378463621231
 31
0
 70
   32
 71
    5
  3
Standard
 53
0
210
0
220
0
230
1
100
AcDbAlignedDimension
 13
9801.316282072799
 23
726.2245709640001
 33
0
 14
9601.316282072799
 24
726.2245709640001
 34
0
100
AcDbRotatedDimension
  0
DIMENSION
  5
157
100
AcDbEntity
  8
dimension
  6
ByLayer
 62
  256
370
   -1
100
AcDbDimension
  2
*D15
 10
7771.3162820728
 20
890.4017633526137
 30
0
 11
8686.316282072799
 21
990.4017633526137
 31
0
 70
   32
 71
    5
  3
Standard
 53
0
210
0
220
0
230
1
100
AcDbAlignedDimension
 13
9601.316282072799
 23
726.2245709640001
 33
0
 14
7771.3162820728
 24
726.2245709640001
 34
0
100
AcDbRotatedDimension
  0
DIMENSION
  5
158
100
AcDbEntity
  8
dimension
  6
ByLayer
 62
  256
370
   -1
100
AcDbDimension
  2
*D16
 10
-22.68371792719996
 20
1286.031958623789
 30
0
 11
6077.3162820864
 21
1386.031958623789
 31
0
 70
   32
 71
    5
  3
Standard
 53
0
210
0
220
0
230
1
100
AcDbAlignedDimension
 13
12177.3162821
 23
726.224570964
 33
0
 14
-22.6837179272
 24
726.224570964
 34
0
100
AcDbRotatedDimension
  0
ENDSEC
  0
SECTION
  2
OBJECTS
  0
DICTIONARY
  5
C
330
0
100
AcDbDictionary
281
    1
  3
ACAD_GROUP
350
D
  0
DICTIONARY
  5
D
330
C
100
AcDbDictionary
281
    1
  0
ENDSEC
  0
EOF
