999
dxfrw 0.6.3
  0
SECTION
  2
HEADER
  9
$ACADVER
  1
AC1021
  9
$DWGCODEPAGE
  3
ANSI_1252
  9
$INSBASE
 10
0
 20
0
 30
0
  9
$EXTMIN
 10
-553.588273912
 20
-2523.014536448607
 30
0
  9
$EXTMAX
 10
12177.3162821
 20
1153.96573544
 30
0
  9
$LIMMIN
 10
0
 20
0
  9
$LIMMAX
 10
420
 20
297
  9
$ORTHOMODE
 70
    0
  9
$REGENMODE
 70
    1
  9
$FILLMODE
 70
    1
  9
$QTEXTMODE
 70
    0
  9
$MIRRTEXT
 70
    0
  9
$LTSCALE
 40
1
  9
$ATTMODE
 70
    0
  9
$TEXTSIZE
 40
2.5
  9
$TRACEWID
 40
15.68
  9
$TEXTSTYLE
  7
STANDARD
  9
$CLAYER
  8
text
  9
$CELTYPE
  6
BYLAYER
  9
$CECOLOR
 62
  256
  9
$CELTSCALE
 40
1
  9
$DISPSILH
 70
    0
  9
$DIMSCALE
 40
1
  9
$DIMASZ
 40
30
  9
$DIMEXO
 40
60
  9
$DIMDLI
 40
3.75
  9
$DIMRND
 40
0
  9
$DIMDLE
 40
0
  9
$DIMEXE
 40
50
  9
$DIMTP
 40
0
  9
$DIMTM
 40
0
  9
$DIMTXT
 40
100
  9
$DIMCEN
 40
2.5
  9
$DIMTSZ
 40
0
  9
$DIMTOL
 70
    0
  9
$DIMLIM
 70
    0
  9
$DIMTIH
 70
    0
  9
$DIMTOH
 70
    0
  9
$DIMSE1
 70
    0
  9
$DIMSE2
 70
    0
  9
$DIMTAD
 70
    1
  9
$DIMZIN
 70
    8
  9
$DIMBLK
  1

  9
$DIMASO
 70
    1
  9
$DIMSHO
 70
    1
  9
$DIMPOST
  1

  9
$DIMAPOST
  1

  9
$DIMALT
 70
    0
  9
$DIMALTD
 70
    3
  9
$DIMALTF
 40
0.03937
  9
$DIMLFAC
 40
1
  9
$DIMTOFL
 70
    1
  9
$DIMTVP
 40
0
  9
$DIMTIX
 70
    0
  9
$DIMSOXD
 70
    0
  9
$DIMSAH
 70
    0
  9
$DIMBLK1
  1

  9
$DIMBLK2
  1

  9
$DIMSTYLE
  2
STANDARD
  9
$DIMCLRD
 70
    0
  9
$DIMCLRE
 70
    0
  9
$DIMCLRT
 70
    0
  9
$DIMTFAC
 40
1
  9
$DIMGAP
 40
50
  9
$DIMJUST
 70
    0
  9
$DIMSD1
 70
    0
  9
$DIMSD2
 70
    0
  9
$DIMTOLJ
 70
    0
  9
$DIMTZIN
 70
    8
  9
$DIMALTZ
 70
    0
  9
$DIMALTTZ
 70
    0
  9
$DIMUPT
 70
    0
  9
$DIMDEC
 70
    4
  9
$DIMTDEC
 70
    2
  9
$DIMALTU
 70
    2
  9
$DIMALTTD
 70
    3
  9
$DIMTXSTY
  7
standard
  9
$DIMAUNIT
 70
    0
  9
$DIMADEC
 70
    0
  9
$DIMALTRND
 40
0
  9
$DIMAZIN
 70
    0
  9
$DIMDSEP
 70
   44
  9
$DIMATFIT
 70
    3
  9
$DIMFRAC
 70
    0
  9
$DIMLDRBLK
  1
STANDARD
  9
$DIMLUNIT
 70
    2
  9
$DIMLWD
 70
   -2
  9
$DIMLWE
 70
   -2
  9
$DIMTMOVE
 70
    0
  9
$DIMFXL
 40
1
  9
$DIMFXLON
 70
    0
  9
$DIMJOGANG
 40
0.7854
  9
$DIMTFILL
 70
    0
  9
$DIMTFILLCLR
 70
    0
  9
$DIMARCSYM
 70
    0
  9
$DIMLTYPE
  6

  9
$DIMLTEX1
  6

  9
$DIMLTEX2
  6

  9
$LUNITS
 70
    2
  9
$LUPREC
 70
    4
  9
$SKETCHINC
 40
1
  9
$FILLETRAD
 40
0
  9
$AUNITS
 70
    0
  9
$AUPREC
 70
    2
  9
$MENU
  1
.
  9
$ELEVATION
 40
0
  9
$PELEVATION
 40
0
  9
$THICKNESS
 40
0
  9
$LIMCHECK
 70
    0
  9
$CHAMFERA
 40
0
  9
$CHAMFERB
 40
0
  9
$CHAMFERC
 40
0
  9
$CHAMFERD
 40
0
  9
$SKPOLY
 70
    0
  9
$USRTIMER
 70
    1
  9
$ANGBASE
 50
0
  9
$ANGDIR
 70
    0
  9
$PDMODE
 70
   34
  9
$PDSIZE
 40
0
  9
$PLINEWID
 40
0
  9
$SPLFRAME
 70
    0
  9
$SPLINETYPE
 70
    2
  9
$SPLINESEGS
 70
    8
  9
$HANDSEED
  5
20000
  9
$SURFTAB1
 70
    6
  9
$SURFTAB2
 70
    6
  9
$SURFTYPE
 70
    6
  9
$SURFU
 70
    6
  9
$SURFV
 70
    6
  9
$UCSBASE
  2

  9
$UCSNAME
  2

  9
$UCSORG
 10
0
 20
0
 30
0
  9
$UCSXDIR
 10
1
 20
0
 30
0
  9
$UCSYDIR
 10
0
 20
1
 30
0
  9
$UCSORTHOREF
  2

  9
$UCSORTHOVIEW
 70
    0
  9
$UCSORGTOP
 10
0
 20
0
 30
0
  9
$UCSORGBOTTOM
 10
0
 20
0
 30
0
  9
$UCSORGLEFT
 10
0
 20
0
 30
0
  9
$UCSORGRIGHT
 10
0
 20
0
 30
0
  9
$UCSORGFRONT
 10
0
 20
0
 30
0
  9
$UCSORGBACK
 10
0
 20
0
 30
0
  9
$PUCSBASE
  2

  9
$PUCSNAME
  2

  9
$PUCSORG
 10
0
 20
0
 30
0
  9
$PUCSXDIR
 10
1
 20
0
 30
0
  9
$PUCSYDIR
 10
0
 20
1
 30
0
  9
$PUCSORTHOREF
  2

  9
$PUCSORTHOVIEW
 70
    0
  9
$PUCSORGTOP
 10
0
 20
0
 30
0
  9
$PUCSORGBOTTOM
 10
0
 20
0
 30
0
  9
$PUCSORGLEFT
 10
0
 20
0
 30
0
  9
$PUCSORGRIGHT
 10
0
 20
0
 30
0
  9
$PUCSORGFRONT
 10
0
 20
0
 30
0
  9
$PUCSORGBACK
 10
0
 20
0
 30
0
  9
$USERI1
 70
    0
  9
$USERI2
 70
    0
  9
$USERI3
 70
    0
  9
$USERI4
 70
    0
  9
$USERI5
 70
    0
  9
$USERR1
 40
0
  9
$USERR2
 40
0
  9
$USERR3
 40
0
  9
$USERR4
 40
0
  9
$USERR5
 40
0
  9
$WORLDVIEW
 70
    1
  9
$SHADEDGE
 70
    3
  9
$SHADEDIF
 70
   70
  9
$TILEMODE
 70
    1
  9
$MAXACTVP
 70
   64
  9
$PINSBASE
 10
0
 20
0
 30
0
  9
$PLIMCHECK
 70
    0
  9
$PEXTMIN
 10
0
 20
0
 30
0
  9
$PEXTMAX
 10
0
 20
0
 30
0
  9
$GRIDMODE
 70
    1
  9
$SNAPSTYLE
 70
    0
  9
$GRIDUNIT
 10
0
 20
0
  9
$PLIMMIN
 10
0
 20
0
  9
$PLIMMAX
 10
210
 20
297
  9
$UNITMODE
 70
    0
  9
$VISRETAIN
 70
    1
  9
$PLINEGEN
 70
    0
  9
$PSLTSCALE
 70
    1
  9
$TREEDEPTH
 70
 3020
  9
$CMLSTYLE
  2
Standard
  9
$CMLJUST
 70
    0
  9
$CMLSCALE
 40
20
  9
$PROXYGRAPHICS
 70
    1
  9
$MEASUREMENT
 70
    1
  9
$CELWEIGHT
370
   -1
  9
$ENDCAPS
280
    0
  9
$JOINSTYLE
280
    0
  9
$LWDISPLAY
290
    0
  9
$INSUNITS
 70
    4
  9
$HYPERLINKBASE
  1

  9
$STYLESHEET
  1

  9
$XEDIT
290
    1
  9
$CEPSNTYPE
380
    0
  9
$PSTYLEMODE
290
    1
  9
$EXTNAMES
290
    1
  9
$PSVPSCALE
 40
1
  9
$OLESTARTUP
290
    0
  9
$SORTENTS
280
  127
  9
$INDEXCTL
280
    0
  9
$HIDETEXT
280
    1
  9
$XCLIPFRAME
290
    0
  9
$HALOGAP
280
    0
  9
$OBSCOLOR
 70
  257
  9
$OBSLTYPE
280
    0
  9
$INTERSECTIONDISPLAY
280
    0
  9
$INTERSECTIONCOLOR
 70
  257
  9
$DIMASSOC
280
    1
  9
$PROJECTNAME
  1

  9
$CAMERADISPLAY
290
    0
  9
$LENSLENGTH
 40
50
  9
$CAMERAHEIGHT
 40
0
  9
$STEPSPERSEC
 40
2
  9
$STEPSIZE
 40
50
  9
$3DDWFPREC
 40
2
  9
$PSOLWIDTH
 40
5
  9
$PSOLHEIGHT
 40
80
  9
$LOFTANG1
 40
1.570796326794897
  9
$LOFTANG2
 40
1.570796326794897
  9
$LOFTMAG1
 40
0
  9
$LOFTMAG2
 40
0
  9
$LOFTPARAM
 70
    7
  9
$LOFTNORMALS
280
    1
  9
$LATITUDE
 40
1
  9
$LONGITUDE
 40
1
  9
$NORTHDIRECTION
 40
0
  9
$TIMEZONE
 70
-8000
  9
$LIGHTGLYPHDISPLAY
280
    1
  9
$TILEMODELIGHTSYNCH
280
    1
  9
$SOLIDHIST
280
    1
  9
$SHOWHIST
280
    1
  9
$DWFFRAME
280
    2
  9
$DGNFRAME
280
    0
  9
$REALWORLDSCALE
290
    1
  9
$INTERFERECOLOR
 62
    1
  9
$CSHADOW
280
    0
  9
$SHADOWPLANELOCATION
 40
0
  0
ENDSEC
  0
SECTION
  2
CLASSES
  0
ENDSEC
  0
SECTION
  2
TABLES
  0
TABLE
  2
VPORT
  5
8
330
0
100
AcDbSymbolTable
 70
    1
  0
VPORT
  5
31
330
2
100
AcDbSymbolTableRecord
100
AcDbViewportTableRecord
  2
*ACTIVE
 70
    0
 10
0
 20
0
 11
1
 21
1
 12
6427.876355693882
 22
1569.863230742289
 13
0
 23
0
 14
10
 24
10
 15
10
 25
10
 16
0
 26
0
 36
1
 17
0
 27
0
 37
0
 40
6576.299788418608
 41
2.348958333333333
 42
50
 43
0
 44
0
 50
0
 51
0
 71
    0
 72
  100
 73
    1
 74
    3
 75
    0
 76
    1
 77
    0
 78
    0
281
    0
 65
    1
110
0
120
0
130
0
111
1
121
0
131
0
112
0
122
1
132
0
 79
    0
146
0
348
10020
 60
    7
 61
    5
292
1
282
    1
141
0
142
0
 63
  250
421
3358443
  0
ENDTAB
  0
TABLE
  2
LTYPE
  5
5
330
0
100
AcDbSymbolTable
 70
    4
  0
LTYPE
  5
14
330
5
100
AcDbSymbolTableRecord
100
AcDbLinetypeTableRecord
  2
ByBlock
 70
    0
  3

 72
   65
 73
    0
 40
0
  0
LTYPE
  5
15
330
5
100
AcDbSymbolTableRecord
100
AcDbLinetypeTableRecord
  2
ByLayer
 70
    0
  3

 72
   65
 73
    0
 40
0
  0
LTYPE
  5
16
330
5
100
AcDbSymbolTableRecord
100
AcDbLinetypeTableRecord
  2
Continuous
 70
    0
  3
Solid line
 72
   65
 73
    0
 40
0
  0
LTYPE
  5
32
330
5
100
AcDbSymbolTableRecord
100
AcDbLinetypeTableRecord
  2
DOT
 70
    0
  3
Dot . . . . . . . . . . . . . . . . . . . . . .
 72
   65
 73
    2
 40
6.35
 49
0
 74
    0
 49
-6.35
 74
    0
  0
LTYPE
  5
33
330
5
100
AcDbSymbolTableRecord
100
AcDbLinetypeTableRecord
  2
DOTTINY
 70
    0
  3
Dot (.15x) .....................................
 72
   65
 73
    2
 40
0.9525
 49
0
 74
    0
 49
-0.9525
 74
    0
  0
LTYPE
  5
34
330
5
100
AcDbSymbolTableRecord
100
AcDbLinetypeTableRecord
  2
DOT2
 70
    0
  3
Dot (.5x) .....................................
 72
   65
 73
    2
 40
3.175
 49
0
 74
    0
 49
-3.175
 74
    0
  0
LTYPE
  5
35
330
5
100
AcDbSymbolTableRecord
100
AcDbLinetypeTableRecord
  2
DOTX2
 70
    0
  3
Dot (2x) .  .  .  .  .  .  .  .  .  .  .  .  .
 72
   65
 73
    2
 40
12.7
 49
0
 74
    0
 49
-12.7
 74
    0
  0
LTYPE
  5
36
330
5
100
AcDbSymbolTableRecord
100
AcDbLinetypeTableRecord
  2
DASHED
 70
    0
  3
Dashed _ _ _ _ _ _ _ _ _ _ _ _ _ _ _ _ _
 72
   65
 73
    2
 40
19.05
 49
12.7
 74
    0
 49
-6.35
 74
    0
  0
LTYPE
  5
37
330
5
100
AcDbSymbolTableRecord
100
AcDbLinetypeTableRecord
  2
DASHEDTINY
 70
    0
  3
Dashed (.15x) _ _ _ _ _ _ _ _ _ _ _ _ _ _ _ _ _
 72
   65
 73
    2
 40
2.8575
 49
1.905
 74
    0
 49
-0.9525
 74
    0
  0
LTYPE
  5
38
330
5
100
AcDbSymbolTableRecord
100
AcDbLinetypeTableRecord
  2
DASHED2
 70
    0
  3
Dashed (.5x) _ _ _ _ _ _ _ _ _ _ _ _ _ _ _ _ _
 72
   65
 73
    2
 40
9.524999999999999
 49
6.35
 74
    0
 49
-3.175
 74
    0
  0
LTYPE
  5
39
330
5
100
AcDbSymbolTableRecord
100
AcDbLinetypeTableRecord
  2
DASHEDX2
 70
    0
  3
Dashed (2x) ____  ____  ____  ____  ____  ___
 72
   65
 73
    2
 40
38.09999999999999
 49
25.4
 74
    0
 49
-12.7
 74
    0
  0
LTYPE
  5
3A
330
5
100
AcDbSymbolTableRecord
100
AcDbLinetypeTableRecord
  2
DASHDOT
 70
    0
  3
Dash dot __ . __ . __ . __ . __ . __ . __ . __
 72
   65
 73
    4
 40
25.4
 49
12.7
 74
    0
 49
-6.35
 74
    0
 49
0
 74
    0
 49
-6.35
 74
    0
  0
LTYPE
  5
3B
330
5
100
AcDbSymbolTableRecord
100
AcDbLinetypeTableRecord
  2
DASHDOTTINY
 70
    0
  3
Dash dot (.15x) _._._._._._._._._._._._._._._.
 72
   65
 73
    4
 40
3.81
 49
1.905
 74
    0
 49
-0.9525
 74
    0
 49
0
 74
    0
 49
-0.9525
 74
    0
  0
LTYPE
  5
3C
330
5
100
AcDbSymbolTableRecord
100
AcDbLinetypeTableRecord
  2
DASHDOT2
 70
    0
  3
Dash dot (.5x) _._._._._._._._._._._._._._._.
 72
   65
 73
    4
 40
12.7
 49
6.35
 74
    0
 49
-3.175
 74
    0
 49
0
 74
    0
 49
-3.175
 74
    0
  0
LTYPE
  5
3D
330
5
100
AcDbSymbolTableRecord
100
AcDbLinetypeTableRecord
  2
DASHDOTX2
 70
    0
  3
Dash dot (2x) ____  .  ____  .  ____  .  ___
 72
   65
 73
    4
 40
50.8
 49
25.4
 74
    0
 49
-12.7
 74
    0
 49
0
 74
    0
 49
-12.7
 74
    0
  0
LTYPE
  5
3E
330
5
100
AcDbSymbolTableRecord
100
AcDbLinetypeTableRecord
  2
DIVIDE
 70
    0
  3
Divide ____ . . ____ . . ____ . . ____ . . ____
 72
   65
 73
    6
 40
31.75
 49
12.7
 74
    0
 49
-6.35
 74
    0
 49
0
 74
    0
 49
-6.35
 74
    0
 49
0
 74
    0
 49
-6.35
 74
    0
  0
LTYPE
  5
3F
330
5
100
AcDbSymbolTableRecord
100
AcDbLinetypeTableRecord
  2
DIVIDETINY
 70
    0
  3
Divide (.15x) __..__..__..__..__..__..__..__.._
 72
   65
 73
    6
 40
4.7625
 49
1.905
 74
    0
 49
-0.9525
 74
    0
 49
0
 74
    0
 49
-0.9525
 74
    0
 49
0
 74
    0
 49
-0.9525
 74
    0
  0
LTYPE
  5
40
330
5
100
AcDbSymbolTableRecord
100
AcDbLinetypeTableRecord
  2
DIVIDE2
 70
    0
  3
Divide (.5x) __..__..__..__..__..__..__..__.._
 72
   65
 73
    6
 40
15.875
 49
6.35
 74
    0
 49
-3.175
 74
    0
 49
0
 74
    0
 49
-3.175
 74
    0
 49
0
 74
    0
 49
-3.175
 74
    0
  0
LTYPE
  5
41
330
5
100
AcDbSymbolTableRecord
100
AcDbLinetypeTableRecord
  2
DIVIDEX2
 70
    0
  3
Divide (2x) ________  .  .  ________  .  .  _
 72
   65
 73
    6
 40
63.5
 49
25.4
 74
    0
 49
-12.7
 74
    0
 49
0
 74
    0
 49
-12.7
 74
    0
 49
0
 74
    0
 49
-12.7
 74
    0
  0
LTYPE
  5
42
330
5
100
AcDbSymbolTableRecord
100
AcDbLinetypeTableRecord
  2
BORDER
 70
    0
  3
Border __ __ . __ __ . __ __ . __ __ . __ __ .
 72
   65
 73
    6
 40
44.45
 49
12.7
 74
    0
 49
-6.35
 74
    0
 49
12.7
 74
    0
 49
-6.35
 74
    0
 49
0
 74
    0
 49
-6.35
 74
    0
  0
LTYPE
  5
43
330
5
100
AcDbSymbolTableRecord
100
AcDbLinetypeTableRecord
  2
BORDERTINY
 70
    0
  3
Border (.15x) __.__.__.__.__.__.__.__.__.__.__.
 72
   65
 73
    6
 40
6.6675
 49
1.905
 74
    0
 49
-0.9525
 74
    0
 49
1.905
 74
    0
 49
-0.9525
 74
    0
 49
0
 74
    0
 49
-0.9525
 74
    0
  0
LTYPE
  5
44
330
5
100
AcDbSymbolTableRecord
100
AcDbLinetypeTableRecord
  2
BORDER2
 70
    0
  3
Border (.5x) __.__.__.__.__.__.__.__.__.__.__.
 72
   65
 73
    6
 40
22.225
 49
6.35
 74
    0
 49
-3.175
 74
    0
 49
6.35
 74
    0
 49
-3.175
 74
    0
 49
0
 74
    0
 49
-3.175
 74
    0
  0
LTYPE
  5
45
330
5
100
AcDbSymbolTableRecord
100
AcDbLinetypeTableRecord
  2
BORDERX2
 70
    0
  3
Border (2x) ____  ____  .  ____  ____  .  ___
 72
   65
 73
    6
 40
88.89999999999999
 49
25.4
 74
    0
 49
-12.7
 74
    0
 49
25.4
 74
    0
 49
-12.7
 74
    0
 49
0
 74
    0
 49
-12.7
 74
    0
  0
LTYPE
  5
46
330
5
100
AcDbSymbolTableRecord
100
AcDbLinetypeTableRecord
  2
CENTER
 70
    0
  3
Center ____ _ ____ _ ____ _ ____ _ ____ _ ____
 72
   65
 73
    4
 40
50.8
 49
31.75
 74
    0
 49
-6.35
 74
    0
 49
6.35
 74
    0
 49
-6.35
 74
    0
  0
LTYPE
  5
47
330
5
100
AcDbSymbolTableRecord
100
AcDbLinetypeTableRecord
  2
CENTERTINY
 70
    0
  3
Center (.15x) ___ _ ___ _ ___ _ ___ _ ___ _ ___
 72
   65
 73
    4
 40
7.619999999999999
 49
4.7625
 74
    0
 49
-0.9525
 74
    0
 49
0.9525
 74
    0
 49
-0.9525
 74
    0
  0
LTYPE
  5
48
330
5
100
AcDbSymbolTableRecord
100
AcDbLinetypeTableRecord
  2
CENTER2
 70
    0
  3
Center (.5x) ___ _ ___ _ ___ _ ___ _ ___ _ ___
 72
   65
 73
    4
 40
28.575
 49
19.05
 74
    0
 49
-3.175
 74
    0
 49
3.175
 74
    0
 49
-3.175
 74
    0
  0
LTYPE
  5
49
330
5
100
AcDbSymbolTableRecord
100
AcDbLinetypeTableRecord
  2
CENTERX2
 70
    0
  3
Center (2x) ________  __  ________  __  _____
 72
   65
 73
    4
 40
101.6
 49
63.5
 74
    0
 49
-12.7
 74
    0
 49
12.7
 74
    0
 49
-12.7
 74
    0
  0
ENDTAB
  0
TABLE
  2
LAYER
  5
2
330
0
100
AcDbSymbolTable
 70
    1
  0
LAYER
  5
10
330
2
100
AcDbSymbolTableRecord
100
AcDbLayerTableRecord
  2
0
 70
    0
 62
    7
  6
CONTINUOUS
370
    0
390
F
  0
LAYER
  5
4A
330
2
100
AcDbSymbolTableRecord
100
AcDbLayerTableRecord
  2
bogus
 70
    0
 62
    3
  6
CONTINUOUS
370
    0
390
F
  0
LAYER
  5
4B
330
2
100
AcDbSymbolTableRecord
100
AcDbLayerTableRecord
  2
cabinates
 70
    0
 62
  253
420
10526884
  6
CONTINUOUS
370
    0
390
F
  0
LAYER
  5
4C
330
2
100
AcDbSymbolTableRecord
100
AcDbLayerTableRecord
  2
dimension
 70
    0
 62
    5
  6
CONTINUOUS
370
    0
390
F
  0
LAYER
  5
4D
330
2
100
AcDbSymbolTableRecord
100
AcDbLayerTableRecord
  2
fictures
 70
    0
 62
    7
  6
CONTINUOUS
370
    0
390
F
  0
LAYER
  5
4E
330
2
100
AcDbSymbolTableRecord
100
AcDbLayerTableRecord
  2
sliders
 70
    0
 62
    7
  6
CONTINUOUS
370
    0
390
F
  0
LAYER
  5
4F
330
2
100
AcDbSymbolTableRecord
100
AcDbLayerTableRecord
  2
text
 70
    0
 62
    7
  6
CONTINUOUS
370
    0
390
F
  0
LAYER
  5
50
330
2
100
AcDbSymbolTableRecord
100
AcDbLayerTableRecord
  2
walls
 70
    0
 62
    7
  6
CONTINUOUS
370
    0
390
F
  0
ENDTAB
  0
TABLE
  2
STYLE
  5
3
330
0
100
AcDbSymbolTable
 70
    3
  0
STYLE
  5
51
330
2
100
AcDbSymbolTableRecord
100
AcDbTextStyleTableRecord
  2
standard
 70
    0
 40
0
 41
1
 50
0
 71
    0
 42
1
  3
standard
  4

  0
ENDTAB
  0
TABLE
  2
VIEW
  5
6
330
0
100
AcDbSymbolTable
 70
    0
  0
ENDTAB
  0
TABLE
  2
UCS
  5
7
330
0
100
AcDbSymbolTable
 70
    0
  0
ENDTAB
  0
TABLE
  2
APPID
  5
9
330
0
100
AcDbSymbolTable
 70
    1
  0
APPID
  5
12
330
9
100
AcDbSymbolTableRecord
100
AcDbRegAppTableRecord
  2
ACAD
 70
    0
  0
APPID
  5
52
330
9
100
AcDbSymbolTableRecord
100
AcDbRegAppTableRecord
  2
LibreCad
 70
    0
  0
ENDTAB
  0
TABLE
  2
DIMSTYLE
  5
A
330
0
100
AcDbSymbolTable
 70
    1
100
AcDbDimStyleTable
 71
    1
  0
DIMSTYLE
105
53
330
A
100
AcDbSymbolTableRecord
100
AcDbDimStyleTableRecord
  2
Standard
 70
    0
 40
1
 41
30
 42
60
 43
0.38
 44
50
 45
0
 46
0
 47
0
 48
0
 49
1
140
100
141
0.09
142
0
143
25.4
144
1
145
0
146
1
147
50
148
0
 71
    0
 72
    0
 73
    0
 74
    1
 75
    0
 76
    0
 77
    0
 78
    8
 79
    0
170
    0
171
    2
172
    0
173
    0
174
    0
175
    0
176
    0
177
    0
178
    0
179
    0
271
    4
272
    4
273
    2
274
    2
275
    0
276
    0
277
    2
278
   44
279
    0
280
    0
281
    0
282
    0
283
    1
284
    0
285
    0
286
    0
288
    0
289
    3
340
standard
341

371
   -2
372
   -2
  0
ENDTAB
  0
TABLE
  2
BLOCK_RECORD
  5
1
330
0
100
AcDbSymbolTable
 70
    2
  0
BLOCK_RECORD
  5
1F
330
1
100
AcDbSymbolTableRecord
100
AcDbBlockTableRecord
  2
*Model_Space
 70
    0
280
    1
281
    0
  0
BLOCK_RECORD
  5
1E
330
1
100
AcDbSymbolTableRecord
100
AcDbBlockTableRecord
  2
*Paper_Space
 70
    0
280
    1
281
    0
  0
BLOCK_RECORD
  5
54
330
1
100
AcDbSymbolTableRecord
100
AcDbBlockTableRecord
  2
*D1
 70
    0
280
    1
281
    0
  0
BLOCK_RECORD
  5
57
330
1
100
AcDbSymbolTableRecord
100
AcDbBlockTableRecord
  2
*D2
 70
    0
280
    1
281
    0
  0
BLOCK_RECORD
  5
5A
330
1
100
AcDbSymbolTableRecord
100
AcDbBlockTableRecord
  2
*D3
 70
    0
280
    1
281
    0
  0
ENDTAB
  0
ENDSEC
  0
SECTION
  2
BLOCKS
  0
BLOCK
  5
20
330
1F
100
AcDbEntity
  8
0
100
AcDbBlockBegin
  2
*Model_Space
 70
    0
 10
0
 20
0
 30
0
  3
*Model_Space
  1

  0
ENDBLK
  5
21
330
1F
100
AcDbEntity
  8
0
100
AcDbBlockEnd
  0
BLOCK
  5
1C
330
1B
100
AcDbEntity
  8
0
100
AcDbBlockBegin
  2
*Paper_Space
 70
    0
 10
0
 20
0
 30
0
  3
*Paper_Space
  1

  0
ENDBLK
  5
1D
330
1F
100
AcDbEntity
  8
0
100
AcDbBlockEnd
  0
BLOCK
  5
55
330
54
100
AcDbEntity
  8
0
100
AcDbBlockBegin
  2
*D1
 70
    1
 10
0
 20
0
  3
*D1
  1

  0
LINE
  5
5D
100
AcDbEntity
  8
dimension
  6
ByBlock
 62
    0
370
   -2
100
AcDbLine
 10
-22.68371792720063
 20
1003.96573544
 11
12177.3162821
 21
1003.96573544
  0
SOLID
  5
5E
100
AcDbEntity
  8
dimension
  6
ByBlock
 62
    0
370
   -2
100
AcDbTrace
 10
-22.68371792720063
 20
1003.96573544
 30
0
 11
7.316282072799368
 21
1008.961151333274
 31
0
 12
7.316282072799368
 22
998.9703195467259
 32
0
 13
7.316282072799368
 23
998.9703195467259
 33
0
  0
SOLID
  5
5F
100
AcDbEntity
  8
dimension
  6
ByBlock
 62
    0
370
   -2
100
AcDbTrace
 10
12177.3162821
 20
1003.96573544
 30
0
 11
12147.3162821
 21
998.9703195467259
 31
0
 12
12147.3162821
 22
1008.961151333274
 32
0
 13
12147.3162821
 23
1008.961151333274
 33
0
  0
MTEXT
  5
60
100
AcDbEntity
  8
dimension
  6
CONTINUOUS
 62
    0
370
   -2
100
AcDbMText
 10
6077.3162820864
 20
1103.96573544
 30
0
 40
100
 41
333.3333333333333
 71
    5
 72
    1
  1
12200
  7
standard
210
0
220
0
230
1
 50
0
 73
    2
 44
1
  0
LINE
  5
61
100
AcDbEntity
  8
dimension
  6
ByBlock
 62
    0
370
   -2
100
AcDbLine
 10
-22.68371792720014
 20
786.224570964
 11
-22.68371792720075
 21
1053.96573544
  0
LINE
  5
62
100
AcDbEntity
  8
dimension
  6
ByBlock
 62
    0
370
   -2
100
AcDbLine
 10
12177.3162821
 20
786.224570964
 11
12177.3162821
 21
1053.96573544
  0
ENDBLK
  5
56
330
54
100
AcDbEntity
  8
0
100
AcDbBlockEnd
  0
BLOCK
  5
58
330
57
100
AcDbEntity
  8
0
100
AcDbBlockBegin
  2
*D2
 70
    1
 10
0
 20
0
  3
*D2
  1

  0
LINE
  5
63
100
AcDbEntity
  8
dimension
  6
ByBlock
 62
    0
370
   -2
100
AcDbLine
 10
-403.588273912
 20
726.2245709640003
 11
-403.588273912
 21
-1713.77542904
  0
SOLID
  5
64
100
AcDbEntity
  8
dimension
  6
ByBlock
 62
    0
370
   -2
100
AcDbTrace
 10
-403.588273912
 20
726.2245709640003
 30
0
 11
-398.5928580187259
 21
696.2245709640003
 31
0
 12
-408.583689805274
 22
696.2245709640003
 32
0
 13
-408.583689805274
 23
696.2245709640003
 33
0
  0
SOLID
  5
65
100
AcDbEntity
  8
dimension
  6
ByBlock
 62
    0
370
   -2
100
AcDbTrace
 10
-403.588273912
 20
-1713.77542904
 30
0
 11
-408.583689805274
 21
-1683.77542904
 31
0
 12
-398.5928580187259
 22
-1683.77542904
 32
0
 13
-398.5928580187259
 23
-1683.77542904
 33
0
  0
MTEXT
  5
66
100
AcDbEntity
  8
dimension
  6
CONTINUOUS
 62
    0
370
   -2
100
AcDbMText
 10
-503.588273912
 20
-493.7754290379999
 30
0
 40
100
 41
300
 71
    5
 72
    1
  1
2440
  7
standard
210
0
220
0
230
1
 50
90
 73
    2
 44
1
  0
LINE
  5
67
100
AcDbEntity
  8
dimension
  6
ByBlock
 62
    0
370
   -2
100
AcDbLine
 10
-82.68371792720001
 20
726.2245709640001
 11
-453.588273912
 21
726.2245709640003
  0
LINE
  5
68
100
AcDbEntity
  8
dimension
  6
ByBlock
 62
    0
370
   -2
100
AcDbLine
 10
-82.68371792720001
 20
-1713.77542904
 11
-453.588273912
 21
-1713.77542904
  0
ENDBLK
  5
59
330
57
100
AcDbEntity
  8
0
100
AcDbBlockEnd
  0
BLOCK
  5
5B
330
5A
100
AcDbEntity
  8
0
100
AcDbBlockBegin
  2
*D3
 70
    1
 10
0
 20
0
  3
*D3
  1

  0
LINE
  5
69
100
AcDbEntity
  8
dimension
  6
ByBlock
 62
    0
370
   -2
100
AcDbLine
 10
-196.4121536806926
 20
-1669.77542904
 11
-196.4121536806926
 21
682.224570964
  0
SOLID
  5
6A
100
AcDbEntity
  8
dimension
  6
ByBlock
 62
    0
370
   -2
100
AcDbTrace
 10
-196.4121536806926
 20
-1669.77542904
 30
0
 11
-201.4075695739667
 21
-1639.77542904
 31
0
 12
-191.4167377874185
 22
-1639.77542904
 32
0
 13
-191.4167377874185
 23
-1639.77542904
 33
0
  0
SOLID
  5
6B
100
AcDbEntity
  8
dimension
  6
ByBlock
 62
    0
370
   -2
100
AcDbTrace
 10
-196.4121536806926
 20
682.224570964
 30
0
 11
-191.4167377874185
 21
652.224570964
 31
0
 12
-201.4075695739667
 22
652.224570964
 32
0
 13
-201.4075695739667
 23
652.224570964
 33
0
  0
MTEXT
  5
6C
100
AcDbEntity
  8
dimension
  6
CONTINUOUS
 62
    0
370
   -2
100
AcDbMText
 10
-296.4121536806926
 20
-493.7754290380001
 30
0
 40
100
 41
277.7777777777902
 71
    5
 72
    1
  1
2352
  7
standard
210
0
220
0
230
1
 50
90
 73
    2
 44
1
  0
LINE
  5
6D
100
AcDbEntity
  8
dimension
  6
ByBlock
 62
    0
370
   -2
100
AcDbLine
 10
-38.6837179272
 20
-1669.77542904
 11
-246.4121536806926
 21
-1669.77542904
  0
LINE
  5
6E
100
AcDbEntity
  8
dimension
  6
ByBlock
 62
    0
370
   -2
100
AcDbLine
 10
-38.6837179272
 20
682.224570964
 11
-246.4121536806926
 21
682.224570964
  0
ENDBLK
  5
5C
330
5A
100
AcDbEntity
  8
0
100
AcDbBlockEnd
  0
ENDSEC
  0
SECTION
  2
ENTITIES
  0
LINE
  5
6F
100
AcDbEntity
  8
0
  6
ByLayer
 62
  256
370
   -1
100
AcDbLine
 10
21.3162820728
 20
-1669.77542904
 11
21.3162820728
 21
682.224570964
  0
LINE
  5
70
100
AcDbEntity
  8
0
  6
ByLayer
 62
  256
370
   -1
100
AcDbLine
 10
-22.6837179272
 20
-1713.77542904
 11
-22.6837179272
 21
726.224570964
  0
LINE
  5
71
100
AcDbEntity
  8
0
  6
ByLayer
 62
  256
370
   -1
100
AcDbLine
 10
12177.3162821
 20
-1713.77542904
 11
12177.3162821
 21
726.224570964
  0
LINE
  5
72
100
AcDbEntity
  8
0
  6
ByLayer
 62
  256
370
   -1
100
AcDbLine
 10
-22.6837179272
 20
-1713.77542904
 11
12177.3162821
 21
-1713.77542904
  0
DIMENSION
  5
73
100
AcDbEntity
  8
dimension
  6
ByLayer
 62
  256
370
   -1
100
AcDbDimension
  2
*D1
 10
12177.3162821
 20
1003.96573544
 30
0
 11
6077.3162820864
 21
1103.96573544
 31
0
 70
   32
 71
    5
 72
    0
  3
Standard
 53
0
210
0
220
0
230
1
100
AcDbAlignedDimension
 13
-22.6837179272
 23
726.224570964
 33
0
 14
12177.3162821
 24
726.224570964
 34
0
100
AcDbRotatedDimension
  0
DIMENSION
  5
74
100
AcDbEntity
  8
dimension
  6
ByLayer
 62
  256
370
   -1
100
AcDbDimension
  2
*D2
 10
-403.588273912
 20
-1713.77542904
 30
0
 11
-503.588273912
 21
-493.7754290379999
 31
0
 70
   32
 71
    5
 72
    0
  3
Standard
 53
0
210
0
220
0
230
1
100
AcDbAlignedDimension
 13
-22.6837179272
 23
726.224570964
 33
0
 14
-22.6837179272
 24
-1713.77542904
 34
0
 50
90
100
AcDbRotatedDimension
  0
DIMENSION
  5
75
100
AcDbEntity
  8
dimension
  6
ByLayer
 62
  256
370
   -1
100
AcDbDimension
  2
*D3
 10
-196.4121536806926
 20
682.224570964
 30
0
 11
-296.4121536806926
 21
-493.7754290380001
 31
0
 70
   32
 71
    5
 72
    0
  3
Standard
 53
0
210
0
220
0
230
1
100
AcDbAlignedDimension
 13
21.3162820728
 23
-1669.77542904
 33
0
 14
21.3162820728
 24
682.224570964
 34
0
 50
90
100
AcDbRotatedDimension
  0
LINE
  5
76
100
AcDbEntity
  8
0
  6
ByLayer
 62
  256
370
   -1
100
AcDbLine
 10
12177.3162821
 20
677.724570964
 11
12053.3162821
 21
677.724570964
  0
LINE
  5
77
100
AcDbEntity
  8
0
  6
ByLayer
 62
  256
370
   -1
100
AcDbLine
 10
12177.3162821
 20
-1665.275429036
 11
12053.3162821
 21
-1665.275429036
  0
LINE
  5
78
100
AcDbEntity
  8
0
  6
ByLayer
 62
  256
370
   -1
100
AcDbLine
 10
12127.3162821
 20
677.724570964
 11
12127.3162821
 21
-1659.289874294531
  0
LINE
  5
79
100
AcDbEntity
  8
walls
  6
ByLayer
 62
  256
370
   -1
100
AcDbLine
 10
12122.3162821
 20
420.724570964
 11
12022.3162821
 21
420.724570964
  0
LINE
  5
7A
100
AcDbEntity
  8
walls
  6
ByLayer
 62
  256
370
   -1
100
AcDbLine
 10
12122.3162821
 20
-1408.275429036
 11
12022.3162821
 21
-1408.275429036
  0
LINE
  5
7B
100
AcDbEntity
  8
0
  6
DASHEDTINY
 62
  256
370
   -1
100
AcDbLine
 10
12053.3162821
 20
-1669.77542904
 11
12053.3162821
 21
682.224570964
  0
LINE
  5
7C
100
AcDbEntity
  8
sliders
  6
ByLayer
 62
  256
370
   -1
100
AcDbLine
 10
12072.3162821
 20
420.724570964
 11
12072.3162821
 21
-1408.275429036
  0
LINE
  5
7D
100
AcDbEntity
  8
sliders
  6
ByLayer
 62
  256
370
   -1
100
AcDbLine
 10
12122.3162821
 20
-503.7754290359999
 11
12072.3162821
 21
-503.7754290359999
  0
LINE
  5
7E
100
AcDbEntity
  8
sliders
  6
ByLayer
 62
  256
370
   -1
100
AcDbLine
 10
12072.3162821
 20
-483.7754290359999
 11
12022.3162821
 21
-483.7754290359999
  0
LINE
  5
7F
100
AcDbEntity
  8
sliders
  6
ByLayer
 62
  256
370
   -1
100
AcDbLine
 10
12022.3162821
 20
-483.7754290359998
 11
12022.3162821
 21
-1619.77542904
  0
LINE
  5
80
100
AcDbEntity
  8
sliders
  6
ByLayer
 62
  256
370
   -1
100
AcDbLine
 10
12122.3162821
 20
677.724570964
 11
12122.3162821
 21
-503.7754290359998
  0
LINE
  5
81
100
AcDbEntity
  8
walls
  6
ByLayer
 62
  256
370
   -1
100
AcDbLine
 10
12022.3162821
 20
420.724570964
 11
12022.3162821
 21
632.224570964
  0
MTEXT
  5
82
100
AcDbEntity
  8
text
  6
ByLayer
 62
  256
370
   -1
100
AcDbMText
 10
4470.714736160852
 20
-2389.681203115267
 30
0
 40
100
 41
5388.889010863801
 71
    1
 72
    1
  1
Standard 12m (40) container with interior wall and 6 foot glass slidding door
  7
standard
210
0
220
0
230
1
 50
0
 73
    2
 44
1
  0
LINE
  5
83
100
AcDbEntity
  8
walls
  6
ByLayer
 62
  256
370
   -1
100
AcDbLine
 10
71.31628207279999
 20
-167.775429036
 11
71.31628207279999
 21
632.224570964
  0
LINE
  5
84
100
AcDbEntity
  8
walls
  6
ByLayer
 62
  256
370
   -1
100
AcDbLine
 10
71.31628207279999
 20
-1619.77542904
 11
71.31628207279999
 21
-267.775429036
  0
LINE
  5
85
100
AcDbEntity
  8
0
  6
ByLayer
 62
  256
370
   -1
100
AcDbLine
 10
-22.6837179272
 20
726.224570964
 11
3941.3162820728
 21
726.2245709640001
  0
LINE
  5
86
100
AcDbEntity
  8
0
  6
ByLayer
 62
  256
370
   -1
100
AcDbLine
 10
3941.3162820728
 20
726.2245709640001
 11
5769.444272872206
 21
726.2245709640001
  0
LINE
  5
87
100
AcDbEntity
  8
0
  6
ByLayer
 62
  256
370
   -1
100
AcDbLine
 10
5769.444272872206
 20
726.2245709640001
 11
12177.3162821
 21
726.224570964
  0
LINE
  5
88
100
AcDbEntity
  8
fictures
  6
ByLayer
 62
  256
370
   -1
100
AcDbLine
 10
71.31628207279977
 20
-1467.775429036
 11
1071.3162820728
 21
-1467.775429036
  0
LINE
  5
89
100
AcDbEntity
  8
fictures
  6
ByLayer
 62
  256
370
   -1
100
AcDbLine
 10
971.3162820728
 20
-1367.775429036
 11
971.3162820728
 21
-367.775429036
  0
LINE
  5
8A
100
AcDbEntity
  8
fictures
  6
ByLayer
 62
  256
370
   -1
100
AcDbLine
 10
171.3162820728
 20
-1367.775429036
 11
171.3162820728
 21
-367.775429036
  0
LINE
  5
8B
100
AcDbEntity
  8
fictures
  6
ByLayer
 62
  256
370
   -1
100
AcDbLine
 10
171.3162820728
 20
-1367.775429036
 11
971.3162820728
 21
-1367.775429036
  0
LINE
  5
8C
100
AcDbEntity
  8
fictures
  6
ByLayer
 62
  256
370
   -1
100
AcDbLine
 10
171.3162820728
 20
-367.775429036
 11
971.3162820728
 21
-367.775429036
  0
LINE
  5
8D
100
AcDbEntity
  8
fictures
  6
ByLayer
 62
  256
370
   -1
100
AcDbLine
 10
1071.3162820728
 20
-1619.77542904
 11
1071.3162820728
 21
-267.7754290360002
  0
LINE
  5
8E
100
AcDbEntity
  8
fictures
  6
ByLayer
 62
  256
370
   -1
100
AcDbLine
 10
331.3162820728
 20
-37.77542903599999
 11
331.3162820728
 21
502.224570964
  0
LINE
  5
8F
100
AcDbEntity
  8
fictures
  6
ByLayer
 62
  256
370
   -1
100
AcDbLine
 10
111.3162820728
 20
-37.77542903599999
 11
111.3162820728
 21
502.224570964
  0
LINE
  5
90
100
AcDbEntity
  8
fictures
  6
ByLayer
 62
  256
370
   -1
100
AcDbLine
 10
111.3162820728
 20
502.224570964
 11
331.3162820728
 21
502.224570964
  0
LINE
  5
91
100
AcDbEntity
  8
fictures
  6
ByLayer
 62
  256
370
   -1
100
AcDbLine
 10
111.3162820728
 20
-37.77542903599999
 11
331.3162820728
 21
-37.77542903599999
  0
ELLIPSE
  5
92
100
AcDbEntity
  8
fictures
  6
ByLayer
 62
  256
370
   -1
100
AcDbEllipse
 10
682.3919396450339
 20
232.224570964
 30
0
 11
-244.2244836624332
 21
0
 31
0
 40
0.5198489996113766
 41
0
 42
6.283185307179586
  0
ELLIPSE
  5
93
100
AcDbEntity
  8
fictures
  6
ByLayer
 62
  256
370
   -1
100
AcDbEllipse
 10
720.7016625724742
 20
232.224570964
 30
0
 11
155.6332493927272
 21
0
 31
0
 40
0.6241265906982003
 41
0
 42
6.283185307179586
  0
LINE
  5
94
100
AcDbEntity
  8
walls
  6
ByLayer
 62
  256
370
   -1
100
AcDbLine
 10
1975.559112746078
 20
-318.3852623001814
 11
1875.559112746078
 21
-318.3852623001814
  0
LINE
  5
95
100
AcDbEntity
  8
walls
  6
ByLayer
 62
  256
370
   -1
100
AcDbLine
 10
1875.559112746078
 20
581.6147376998186
 11
1975.559112746078
 21
581.6147376998186
  0
LINE
  5
96
100
AcDbEntity
  8
walls
  6
ByLayer
 62
  256
370
   -1
100
AcDbLine
 10
1875.559112746078
 20
-18.38526230018135
 11
1975.559112746078
 21
-18.38526230018135
  0
LINE
  5
97
100
AcDbEntity
  8
walls
  6
ByLayer
 62
  256
370
   -1
100
AcDbLine
 10
1975.559112746078
 20
-918.3852623001814
 11
1875.559112746078
 21
-918.3852623001814
  0
LINE
  5
98
100
AcDbEntity
  8
walls
  6
ByLayer
 62
  256
370
   -1
100
AcDbLine
 10
1875.559112746078
 20
631.6147376998186
 11
1875.559112746078
 21
581.6147376998186
  0
LINE
  5
99
100
AcDbEntity
  8
walls
  6
ByLayer
 62
  256
370
   -1
100
AcDbLine
 10
1875.559112746078
 20
-18.38526230018135
 11
1875.559112746078
 21
-168.3852623001814
  0
LINE
  5
9A
100
AcDbEntity
  8
walls
  6
ByLayer
 62
  256
370
   -1
100
AcDbLine
 10
1975.559112746078
 20
581.6147376998186
 11
1975.559112746078
 21
631.6147376998186
  0
LINE
  5
9B
100
AcDbEntity
  8
walls
  6
ByLayer
 62
  256
370
   -1
100
AcDbLine
 10
1875.559112746078
 20
-268.3852623001814
 11
1875.413557520504
 21
-314.7462688320446
  0
LINE
  5
9C
100
AcDbEntity
  8
walls
  6
ByLayer
 62
  256
370
   -1
100
AcDbLine
 10
1873.50714208973
 20
-921.9614195793472
 11
1871.314367437529
 21
-1620.385262304181
  0
LINE
  5
9D
100
AcDbEntity
  8
walls
  6
ByLayer
 62
  256
370
   -1
100
AcDbLine
 10
1975.559112746078
 20
-1620.385262304181
 11
1975.559112746078
 21
-919.4445941019404
  0
MTEXT
  5
9E
100
AcDbEntity
  8
cabinates
  6
ByLayer
 62
  256
370
   -1
100
AcDbMText
 10
5318.441194131326
 20
-1100.517893876227
 30
0
 40
50
 41
298.6111368254788
 71
    1
 72
    1
  1
450 base
  7
standard
210
0
220
0
230
1
 50
0
 73
    2
 44
1
  0
MTEXT
  5
9F
100
AcDbEntity
  8
cabinates
  6
ByLayer
 62
  256
370
   -1
100
AcDbMText
 10
4596.392705362195
 20
-1100.517893876227
 30
0
 40
50
 41
463.8889403176188
 71
    1
 72
    1
  1
900 base sink
  7
standard
210
0
220
0
230
1
 50
0
 73
    2
 44
1
  0
MTEXT
  5
A0
100
AcDbEntity
  8
cabinates
  6
ByLayer
 62
  256
370
   -1
100
AcDbMText
 10
3545.120035185376
 20
-1089.294342237329
 30
0
 40
50
 41
702.7778034921447
 71
    1
 72
    1
  1
800x900 cornor base
  7
standard
210
0
220
0
230
1
 50
0
 73
    2
 44
1
  0
LINE
  5
A1
100
AcDbEntity
  8
cabinates
  6
ByLayer
 62
  256
370
   -1
100
AcDbLine
 10
4345.559112746077
 20
-1620.385262304182
 11
4345.559112746077
 21
-970.3852623041814
  0
LINE
  5
A2
100
AcDbEntity
  8
cabinates
  6
ByLayer
 62
  256
370
   -1
100
AcDbLine
 10
3445.559112746078
 20
-820.3852623041814
 11
4095.559112746078
 21
-820.3852623041814
  0
LINE
  5
A3
100
AcDbEntity
  8
cabinates
  6
ByLayer
 62
  256
370
   -1
100
AcDbLine
 10
3445.559112746078
 20
-805.3852623041814
 11
4095.559112746078
 21
-805.3852623041814
  0
LINE
  5
A4
100
AcDbEntity
  8
cabinates
  6
ByLayer
 62
  256
370
   -1
100
AcDbLine
 10
4095.559112746078
 20
-970.3852623041814
 11
4095.559112746078
 21
-805.3852623041814
  0
LINE
  5
A5
100
AcDbEntity
  8
cabinates
  6
ByLayer
 62
  256
370
   -1
100
AcDbLine
 10
6348.559112746077
 20
-1620.385262304182
 11
6348.559112746077
 21
-970.3852623041819
  0
LINE
  5
A6
100
AcDbEntity
  8
cabinates
  6
ByLayer
 62
  256
370
   -1
100
AcDbLine
 10
6363.559112746077
 20
-1620.385262304182
 11
6363.559112746077
 21
-970.3852623041819
  0
LINE
  5
A7
100
AcDbEntity
  8
cabinates
  6
ByLayer
 62
  256
370
   -1
100
AcDbLine
 10
5245.559112746077
 20
-1620.385262304182
 11
5245.559112746077
 21
-970.3852623041817
  0
LINE
  5
A8
100
AcDbEntity
  8
cabinates
  6
ByLayer
 62
  256
370
   -1
100
AcDbLine
 10
5695.559112746077
 20
-1620.385262304182
 11
5695.559112746077
 21
-970.3852623041818
  0
LINE
  5
A9
100
AcDbEntity
  8
cabinates
  6
ByLayer
 62
  256
370
   -1
100
AcDbLine
 10
5710.559112746077
 20
-1620.385262304182
 11
5710.559112746077
 21
-970.3852623041818
  0
LINE
  5
AA
100
AcDbEntity
  8
cabinates
  6
ByLayer
 62
  256
370
   -1
100
AcDbLine
 10
4095.559112746078
 20
-970.3852623041814
 11
5710.559112746077
 21
-970.3852623041818
  0
LINE
  5
AB
100
AcDbEntity
  8
fictures
  6
ByLayer
 62
  256
370
   -1
100
AcDbLine
 10
3495.559112746078
 20
-755.3852623041814
 11
3495.559112746078
 21
-175.3852623041814
  0
LINE
  5
AC
100
AcDbEntity
  8
fictures
  6
ByLayer
 62
  256
370
   -1
100
AcDbLine
 10
4145.559112746077
 20
-755.3852623041814
 11
4145.559112746078
 21
-175.3852623041814
  0
LINE
  5
AD
100
AcDbEntity
  8
fictures
  6
ByLayer
 62
  256
370
   -1
100
AcDbLine
 10
4095.559112746077
 20
-755.3852623041813
 11
4095.559112746078
 21
-175.3852623041813
  0
LINE
  5
AE
100
AcDbEntity
  8
fictures
  6
ByLayer
 62
  256
370
   -1
100
AcDbLine
 10
4080.559112746077
 20
-755.3852623041813
 11
4080.559112746078
 21
-175.3852623041813
  0
LINE
  5
AF
100
AcDbEntity
  8
fictures
  6
ByLayer
 62
  256
370
   -1
100
AcDbLine
 10
3495.559112746078
 20
-175.3852623041814
 11
4080.559112746078
 21
-175.3852623041813
  0
LINE
  5
B0
100
AcDbEntity
  8
fictures
  6
ByLayer
 62
  256
370
   -1
100
AcDbLine
 10
3495.559112746078
 20
-755.3852623041814
 11
4080.559112746077
 21
-755.3852623041813
  0
LINE
  5
B1
100
AcDbEntity
  8
fictures
  6
ByLayer
 62
  256
370
   -1
100
AcDbLine
 10
4095.559112746078
 20
-175.3852623041813
 11
4145.559112746078
 21
-175.3852623041814
  0
LINE
  5
B2
100
AcDbEntity
  8
fictures
  6
ByLayer
 62
  256
370
   -1
100
AcDbLine
 10
4095.559112746077
 20
-755.3852623041813
 11
4145.559112746077
 21
-755.3852623041814
  0
MTEXT
  5
B3
100
AcDbEntity
  8
text
  6
ByLayer
 62
  256
370
   -1
100
AcDbMText
 10
5129.160672221161
 20
-249.0478252710479
 30
0
 40
75
 41
333.3333333333401
 71
    1
 72
    1
  1
kitchen
  7
standard
210
0
220
0
230
1
 50
0
 73
    2
 44
1
  0
MTEXT
  5
B4
100
AcDbEntity
  8
fictures
  6
ByLayer
 62
  256
370
   -1
100
AcDbMText
 10
5857.919909574389
 20
-1087.049631909551
 30
0
 40
50
 41
320.8333333333356
 71
    1
 72
    1
  1
oven free \Pstanding
  7
standard
210
0
220
0
230
1
 50
0
 73
    2
 44
1
  0
LINE
  5
B5
100
AcDbEntity
  8
fictures
  6
ByLayer
 62
  256
370
   -1
100
AcDbLine
 10
5760.559112746077
 20
-920.3852623041814
 11
6298.559112746077
 21
-920.3852623041815
  0
LINE
  5
B6
100
AcDbEntity
  8
fictures
  6
ByLayer
 62
  256
370
   -1
100
AcDbLine
 10
5760.559112746077
 20
-1570.385262304181
 11
6298.559112746077
 21
-1570.385262304182
  0
LINE
  5
B7
100
AcDbEntity
  8
fictures
  6
ByLayer
 62
  256
370
   -1
100
AcDbLine
 10
6298.559112746077
 20
-1570.385262304182
 11
6298.559112746077
 21
-920.3852623041814
  0
LINE
  5
B8
100
AcDbEntity
  8
fictures
  6
ByLayer
 62
  256
370
   -1
100
AcDbLine
 10
5760.559112746077
 20
-1570.385262304181
 11
5760.559112746077
 21
-920.3852623041814
  0
MTEXT
  5
B9
100
AcDbEntity
  8
fictures
  6
ByLayer
 62
  256
370
   -1
100
AcDbMText
 10
3743.402780805922
 20
-404.6576922645256
 30
0
 40
50
 41
100
 71
    1
 72
    1
  1
Ref
  7
standard
210
0
220
0
230
1
 50
0
 73
    2
 44
1
  0
LINE
  5
BA
100
AcDbEntity
  8
fictures
  6
ByLayer
 62
  256
370
   -1
100
AcDbLine
 10
2695.559112746078
 20
-1570.385262304181
 11
2695.559112746078
 21
-970.3852623041814
  0
LINE
  5
BB
100
AcDbEntity
  8
fictures
  6
ByLayer
 62
  256
370
   -1
100
AcDbLine
 10
2645.559112746078
 20
-1570.385262304181
 11
2645.559112746078
 21
-970.3852623041814
  0
LINE
  5
BC
100
AcDbEntity
  8
fictures
  6
ByLayer
 62
  256
370
   -1
100
AcDbLine
 10
3295.559112746078
 20
-1570.385262304181
 11
3295.559112746078
 21
-970.3852623041814
  0
LINE
  5
BD
100
AcDbEntity
  8
fictures
  6
ByLayer
 62
  256
370
   -1
100
AcDbLine
 10
2045.559112746077
 20
-1570.385262304181
 11
2045.559112746077
 21
-970.3852623041814
  0
LINE
  5
BE
100
AcDbEntity
  8
fictures
  6
ByLayer
 62
  256
370
   -1
100
AcDbLine
 10
2045.559112746077
 20
-970.3852623041814
 11
2645.559112746078
 21
-970.3852623041814
  0
LINE
  5
BF
100
AcDbEntity
  8
fictures
  6
ByLayer
 62
  256
370
   -1
100
AcDbLine
 10
2695.559112746078
 20
-970.3852623041814
 11
3295.559112746078
 21
-970.3852623041814
  0
LINE
  5
C0
100
AcDbEntity
  8
fictures
  6
ByLayer
 62
  256
370
   -1
100
AcDbLine
 10
2695.559112746078
 20
-1570.385262304181
 11
3295.559112746078
 21
-1570.385262304181
  0
LINE
  5
C1
100
AcDbEntity
  8
fictures
  6
ByLayer
 62
  256
370
   -1
100
AcDbLine
 10
2045.559112746077
 20
-1570.385262304181
 11
2645.559112746078
 21
-1570.385262304181
  0
LINE
  5
C2
100
AcDbEntity
  8
walls
  6
ByLayer
 62
  256
370
   -1
100
AcDbLine
 10
71.31628207279999
 20
-1619.77542904
 11
1871.3162820728
 21
-1619.77542904
  0
LINE
  5
C3
100
AcDbEntity
  8
walls
  6
ByLayer
 62
  256
370
   -1
100
AcDbLine
 10
1975.559112746078
 20
-318.3852623001814
 11
1975.559112746078
 21
-17.37033704493521
  0
LINE
  5
C4
100
AcDbEntity
  8
walls
  6
ByLayer
 62
  256
370
   -1
100
AcDbLine
 10
71.31628207279999
 20
-267.775429036
 11
1875.561027381349
 21
-267.775429036
  0
LINE
  5
C5
100
AcDbEntity
  8
walls
  6
ByLayer
 62
  256
370
   -1
100
AcDbLine
 10
1875.874987833164
 20
-167.775429036
 11
71.31628207279999
 21
-167.775429036
  0
LINE
  5
C6
100
AcDbEntity
  8
walls
  6
ByLayer
 62
  256
370
   -1
100
AcDbLine
 10
71.31628207279999
 20
632.224570964
 11
1875.559112746078
 21
632.224570964
  0
LINE
  5
C7
100
AcDbEntity
  8
walls
  6
ByLayer
 62
  256
370
   -1
100
AcDbLine
 10
1975.559112746078
 20
632.224570964
 11
3345.559112746078
 21
632.224570964
  0
MTEXT
  5
C8
100
AcDbEntity
  8
fictures
  6
ByLayer
 62
  256
370
   -1
100
AcDbMText
 10
453.6185454055142
 20
-617.2953401394627
 30
0
 40
50
 41
105.5555555555579
 71
    1
 72
    1
  1
Tub
  7
standard
210
0
220
0
230
1
 50
0
 73
    2
 44
1
  0
MTEXT
  5
C9
100
AcDbEntity
  8
fictures
  6
ByLayer
 62
  256
370
   -1
100
AcDbMText
 10
692.1190177321248
 20
247.8534320256933
 30
0
 40
50
 41
83.33333333333337
 71
    1
 72
    1
  1
WC
  7
standard
210
0
220
0
230
1
 50
0
 73
    2
 44
1
  0
MTEXT
  5
CA
100
AcDbEntity
  8
text
  6
ByLayer
 62
  256
370
   -1
100
AcDbMText
 10
2483.210800106475
 20
-65.47071789357938
 30
0
 40
75
 41
283.3333333333334
 71
    1
 72
    1
  1
Utility
  7
standard
210
0
220
0
230
1
 50
0
 73
    2
 44
1
  0
LINE
  5
CB
100
AcDbEntity
  8
walls
  6
ByLayer
 62
  256
370
   -1
100
AcDbLine
 10
3345.559112746078
 20
-1620.385262304181
 11
3345.559112746078
 21
632.224570964
  0
LINE
  5
CC
100
AcDbEntity
  8
walls
  6
ByLayer
 62
  256
370
   -1
100
AcDbLine
 10
3445.559112746078
 20
-1620.385262304181
 11
3445.559112746078
 21
632.224570964
  0
LINE
  5
CD
100
AcDbEntity
  8
0
  6
ByLayer
 62
  256
370
   -1
100
AcDbLine
 10
21.3162820728
 20
682.224570964
 11
2495.559112746078
 21
682.224570964
  0
LINE
  5
CE
100
AcDbEntity
  8
walls
  6
ByLayer
 62
  256
370
   -1
100
AcDbLine
 10
2495.559112746078
 20
632.224570964
 11
2495.559112746078
 21
726.2245709640001
  0
LINE
  5
CF
100
AcDbEntity
  8
walls
  6
ByLayer
 62
  256
370
   -1
100
AcDbLine
 10
3295.559112746078
 20
632.224570964
 11
3295.559112746078
 21
726.2245709640001
  0
MTEXT
  5
D0
100
AcDbEntity
  8
cabinates
  6
ByLayer
 62
  256
370
   -1
100
AcDbMText
 10
6584.483628154806
 20
-1075.590365394606
 30
0
 40
50
 41
509.7222222222277
 71
    1
 72
    1
  1
900x900 cornor \Pbase
  7
standard
210
0
220
0
230
1
 50
0
 73
    2
 44
1
  0
LINE
  5
D1
100
AcDbEntity
  8
cabinates
  6
ByLayer
 62
  256
370
   -1
100
AcDbLine
 10
6348.559112746077
 20
-970.3852623041817
 11
6613.559112746077
 21
-970.3852623041815
  0
LINE
  5
D2
100
AcDbEntity
  8
cabinates
  6
ByLayer
 62
  256
370
   -1
100
AcDbLine
 10
6613.559112746077
 20
-719.7754290400001
 11
7263.559112746077
 21
-719.7754290400001
  0
LINE
  5
D3
100
AcDbEntity
  8
0
  6
ByLayer
 62
  256
370
   -1
100
AcDbLine
 10
21.3162820728
 20
-1669.77542904
 11
7963.559112746077
 21
-1669.77542904
  0
LINE
  5
D4
100
AcDbEntity
  8
0
  6
ByLayer
 62
  256
370
   -1
100
AcDbLine
 10
9793.559112746076
 20
-1669.77542904
 11
9993.559112746076
 21
-1669.77542904
  0
LINE
  5
D5
100
AcDbEntity
  8
0
  6
ByLayer
 62
  256
370
   -1
100
AcDbLine
 10
11823.55911274608
 20
-1669.77542904
 11
12053.3162821
 21
-1669.77542904
  0
LINE
  5
D6
100
AcDbEntity
  8
walls
  6
ByLayer
 62
  256
370
   -1
100
AcDbLine
 10
11823.55911274608
 20
-1713.77542904
 11
11823.55911274608
 21
-1619.77542904
  0
LINE
  5
D7
100
AcDbEntity
  8
walls
  6
ByLayer
 62
  256
370
   -1
100
AcDbLine
 10
9993.559112746076
 20
-1713.77542904
 11
9993.559112746076
 21
-1619.77542904
  0
LINE
  5
D8
100
AcDbEntity
  8
walls
  6
ByLayer
 62
  256
370
   -1
100
AcDbLine
 10
9793.559112746076
 20
-1713.77542904
 11
9793.559112746076
 21
-1619.77542904
  0
LINE
  5
D9
100
AcDbEntity
  8
walls
  6
ByLayer
 62
  256
370
   -1
100
AcDbLine
 10
7963.559112746076
 20
-1713.77542904
 11
7963.559112746077
 21
-1619.77542904
  0
MTEXT
  5
DA
100
AcDbEntity
  8
sliders
  6
ByLayer
 62
  256
370
   -1
100
AcDbMText
 10
8493.656526730512
 20
-1478.936752417632
 30
0
 40
50
 41
430.5555812699186
 71
    1
 72
    1
  1
6 foot slider
  7
standard
210
0
220
0
230
1
 50
0
 73
    2
 44
1
  0
MTEXT
  5
DB
100
AcDbEntity
  8
sliders
  6
ByLayer
 62
  256
370
   -1
100
AcDbMText
 10
10270.71886955644
 20
-1473.091152605705
 30
0
 40
50
 41
430.5555812699186
 71
    1
 72
    1
  1
6 foot slider
  7
standard
210
0
220
0
230
1
 50
0
 73
    2
 44
1
  0
MTEXT
  5
DC
100
AcDbEntity
  8
sliders
  6
ByLayer
 62
  256
370
   -1
100
AcDbMText
 10
2785.793660371658
 20
520.6237332497851
 30
0
 40
50
 41
287.5
 71
    1
 72
    1
  1
800 door
  7
standard
210
0
220
0
230
1
 50
0
 73
    2
 44
1
  0
LINE
  5
DD
100
AcDbEntity
  8
walls
  6
ByLayer
 62
  256
370
   -1
100
AcDbLine
 10
4445.559112746078
 20
-1713.77542904
 11
4445.559112746078
 21
-1619.77542904
  0
LINE
  5
DE
100
AcDbEntity
  8
walls
  6
ByLayer
 62
  256
370
   -1
100
AcDbLine
 10
5145.559112746078
 20
-1713.77542904
 11
5145.559112746078
 21
-1619.77542904
  0
MTEXT
  5
DF
100
AcDbEntity
  8
sliders
  6
ByLayer
 62
  256
370
   -1
100
AcDbMText
 10
4597.914988069647
 20
-1780.803526705575
 30
0
 40
50
 41
370.8333333333356
 71
    1
 72
    1
  1
700 window\Pover sink
  7
standard
210
0
220
0
230
1
 50
0
 73
    2
 44
1
  0
LINE
  5
E0
100
AcDbEntity
  8
walls
  6
ByLayer
 62
  256
370
   -1
100
AcDbLine
 10
3445.559112746078
 20
-1619.77542904
 11
7263.559112746077
 21
-1619.77542904
  0
LINE
  5
E1
100
AcDbEntity
  8
walls
  6
ByLayer
 62
  256
370
   -1
100
AcDbLine
 10
1975.559112746078
 20
-1619.77542904
 11
3345.559112746078
 21
-1619.77542904
  0
MTEXT
  5
E2
100
AcDbEntity
  8
fictures
  6
ByLayer
 62
  256
370
   -1
100
AcDbMText
 10
2866.68214776922
 20
-1197.178841482741
 30
0
 40
50
 41
222.2222479365867
 71
    1
 72
    1
  1
washer
  7
standard
210
0
220
0
230
1
 50
0
 73
    2
 44
1
  0
MTEXT
  5
E3
100
AcDbEntity
  8
fictures
  6
ByLayer
 62
  256
370
   -1
100
AcDbMText
 10
2216.651448682888
 20
-1201.855321332283
 30
0
 40
50
 41
172.2222222222253
 71
    1
 72
    1
  1
Dryer
  7
standard
210
0
220
0
230
1
 50
0
 73
    2
 44
1
  0
MTEXT
  5
E4
100
AcDbEntity
  8
walls
  6
ByLayer
 62
  256
370
   -1
100
AcDbMText
 10
1164.443482535947
 20
-1047.531486297398
 30
0
 40
75
 41
572.9452395685195
 71
    1
 72
    1
  1
shower Tub\Proom
  7
standard
210
0
220
0
230
1
 50
0
 73
    2
 44
1
  0
LINE
  5
E5
100
AcDbEntity
  8
walls
  6
ByLayer
 62
  256
370
   -1
100
AcDbLine
 10
-22.68371792719998
 20
537.224570964
 11
71.31628207279999
 21
537.224570964
  0
LINE
  5
E6
100
AcDbEntity
  8
walls
  6
ByLayer
 62
  256
370
   -1
100
AcDbLine
 10
-22.68371792720006
 20
-62.77542903599999
 11
71.31628207279999
 21
-62.775429036
  0
MTEXT
  5
E7
100
AcDbEntity
  8
sliders
  6
ByLayer
 62
  256
370
   -1
100
AcDbMText
 10
-102.957380367516
 20
-19.1548614637239
 30
0
 40
50
 41
541.6666666666794
 71
    1
 72
    1
  1
600 high window
  7
standard
210
0
220
0
230
1
 50
90
 73
    2
 44
1
  0
LINE
  5
E8
100
AcDbEntity
  8
sliders
  6
ByLayer
 62
  256
370
   -1
100
AcDbLine
 10
-22.6837179272
 20
-519.7754290400001
 11
71.31628207279999
 21
-519.7754290400001
  0
LINE
  5
E9
100
AcDbEntity
  8
sliders
  6
ByLayer
 62
  256
370
   -1
100
AcDbLine
 10
-22.6837179272
 20
-1319.77542904
 11
71.31628207279999
 21
-1319.77542904
  0
MTEXT
  5
EA
100
AcDbEntity
  8
walls
  6
ByLayer
 62
  256
370
   -1
100
AcDbMText
 10
-112.2355163890073
 20
-1077.46095733447
 30
0
 40
50
 41
370.8333333333356
 71
    1
 72
    1
  1
800 window
  7
standard
210
0
220
0
230
1
 50
90
 73
    2
 44
1
  0
LINE
  5
EB
100
AcDbEntity
  8
walls
  6
ByLayer
 62
  256
370
   -1
100
AcDbLine
 10
9793.316282100001
 20
632.224570964
 11
9793.316282100001
 21
726.2245709640001
  0
LINE
  5
EC
100
AcDbEntity
  8
sliders
  6
ByLayer
 62
  256
370
   -1
100
AcDbLine
 10
9793.316282100001
 20
586.2245709640001
 11
10717.8162821
 21
586.2245709640001
  0
LINE
  5
ED
100
AcDbEntity
  8
sliders
  6
ByLayer
 62
  256
370
   -1
100
AcDbLine
 10
10717.8162821
 20
586.2245709640001
 11
10717.8162821
 21
636.2431091356779
  0
LINE
  5
EE
100
AcDbEntity
  8
walls
  6
ByLayer
 62
  256
370
   -1
100
AcDbLine
 10
11622.3162821
 20
572.224570964
 11
11622.3162821
 21
726.2245709640094
  0
LINE
  5
EF
100
AcDbEntity
  8
sliders
  6
ByLayer
 62
  256
370
   -1
100
AcDbLine
 10
9793.316282100001
 20
636.2245709640001
 11
9793.316282100001
 21
572.224570964
  0
LINE
  5
F0
100
AcDbEntity
  8
walls
  6
ByLayer
 62
  256
370
   -1
100
AcDbLine
 10
11722.3162821
 20
572.224570964
 11
11722.3162821
 21
632.224570964
  0
LINE
  5
F1
100
AcDbEntity
  8
walls
  6
ByLayer
 62
  256
370
   -1
100
AcDbLine
 10
9693.316282100001
 20
632.224570964
 11
9693.316282100001
 21
572.224570964
  0
LINE
  5
F2
100
AcDbEntity
  8
walls
  6
ByLayer
 62
  256
370
   -1
100
AcDbLine
 10
11623.35975904578
 20
572.224570964
 11
11722.3162821
 21
572.224570964
  0
LINE
  5
F3
100
AcDbEntity
  8
walls
  6
ByLayer
 62
  256
370
   -1
100
AcDbLine
 10
9693.316282099997
 20
572.224570964
 11
9794.070489260599
 21
572.224570964
  0
LINE
  5
F4
100
AcDbEntity
  8
sliders
  6
ByLayer
 62
  256
370
   -1
100
AcDbLine
 10
10697.8162821
 20
682.8344042281814
 11
10697.8162821
 21
636.2245709640001
  0
LINE
  5
F5
100
AcDbEntity
  8
sliders
  6
ByLayer
 62
  256
370
   -1
100
AcDbLine
 10
10697.8162821
 20
682.8344042281815
 11
11622.3162821
 21
682.8344042281814
  0
LINE
  5
F6
100
AcDbEntity
  8
sliders
  6
ByLayer
 62
  256
370
   -1
100
AcDbLine
 10
11622.3162821
 20
636.8751750282437
 11
9793.316282100001
 21
636.8384997270014
  0
MTEXT
  5
F7
100
AcDbEntity
  8
sliders
  6
ByLayer
 62
  256
370
   -1
100
AcDbMText
 10
10398.3554068592
 20
523.7657431486957
 30
0
 40
50
 41
430.5555812699186
 71
    1
 72
    1
  1
6 foot slider
  7
standard
210
0
220
0
230
1
 50
0
 73
    2
 44
1
  0
LINE
  5
F8
100
AcDbEntity
  8
0
  6
ByLayer
 62
  256
370
   -1
100
AcDbLine
 10
11622.3162821
 20
682.224570964
 11
12053.3162821
 21
682.224570964
  0
LINE
  5
F9
100
AcDbEntity
  8
walls
  6
ByLayer
 62
  256
370
   -1
100
AcDbLine
 10
11722.3162821
 20
632.224570964
 11
12022.3162821
 21
632.224570964
  0
LINE
  5
FA
100
AcDbEntity
  8
walls
  6
ByLayer
 62
  256
370
   -1
100
AcDbLine
 10
3445.559112746078
 20
632.224570964
 11
4095.559112746078
 21
632.224570964
  0
LINE
  5
FB
100
AcDbEntity
  8
0
  6
ByLayer
 62
  256
370
   -1
100
AcDbLine
 10
3295.559112746078
 20
682.224570964
 11
4095.559112746078
 21
682.224570964
  0
LINE
  5
FC
100
AcDbEntity
  8
walls
  6
ByLayer
 62
  256
370
   -1
100
AcDbLine
 10
4095.559112746078
 20
632.224570964
 11
9693.316282100001
 21
632.224570964
  0
LINE
  5
FD
100
AcDbEntity
  8
walls
  6
ByLayer
 62
  256
370
   -1
100
AcDbLine
 10
7263.559112746076
 20
-1619.77542904
 11
12022.3162821
 21
-1619.77542904
  0
LINE
  5
FE
100
AcDbEntity
  8
cabinates
  6
ByLayer
 62
  256
370
   -1
100
AcDbLine
 10
3445.559112746078
 20
32.22457096400001
 11
3745.559112746078
 21
32.22457096400001
  0
LINE
  5
FF
100
AcDbEntity
  8
cabinates
  6
ByLayer
 62
  256
370
   -1
100
AcDbLine
 10
3745.559112746078
 20
32.22457096400001
 11
3745.559112746078
 21
332.224570964
  0
LINE
  5
100
100
AcDbEntity
  8
cabinates
  6
ByLayer
 62
  256
370
   -1
100
AcDbLine
 10
5745.559112746078
 20
332.224570964
 11
5745.559112746078
 21
632.2245709639994
  0
LINE
  5
101
100
AcDbEntity
  8
cabinates
  6
ByLayer
 62
  256
370
   -1
100
AcDbLine
 10
3745.559112746078
 20
332.224570964
 11
5745.559112746078
 21
332.224570964
  0
LINE
  5
102
100
AcDbEntity
  8
cabinates
  6
ByLayer
 62
  256
370
   -1
100
AcDbLine
 10
6613.559112746077
 20
-970.3852623041815
 11
6613.559112746077
 21
-251.77542904
  0
LINE
  5
103
100
AcDbEntity
  8
cabinates
  6
ByLayer
 62
  256
370
   -1
100
AcDbLine
 10
7463.559112746077
 20
-1619.77542904
 11
7463.559112746076
 21
-251.7754290399999
  0
LINE
  5
104
100
AcDbEntity
  8
cabinates
  6
ByLayer
 62
  256
370
   -1
100
AcDbLine
 10
6613.559112746077
 20
-251.77542904
 11
7463.559112746075
 21
-251.77542904
  0
LINE
  5
105
100
AcDbEntity
  8
cabinates
  6
DASHEDTINY
 62
  256
370
   -1
100
AcDbLine
 10
7263.559112746077
 20
-1619.77542904
 11
7263.559112746076
 21
-251.77542904
  0
LINE
  5
106
100
AcDbEntity
  8
0
  6
ByLayer
 62
  256
370
   -1
100
AcDbLine
 10
4095.559112746078
 20
682.224570964
 11
5845.559112746077
 21
682.224570964
  0
LINE
  5
107
100
AcDbEntity
  8
0
  6
ByLayer
 62
  256
370
   -1
100
AcDbLine
 10
6645.559112746078
 20
682.224570964
 11
9793.316282100001
 21
682.224570964
  0
LINE
  5
108
100
AcDbEntity
  8
walls
  6
ByLayer
 62
  256
370
   -1
100
AcDbLine
 10
6645.559112746078
 20
632.224570964
 11
6645.559112746078
 21
726.224570964
  0
LINE
  5
109
100
AcDbEntity
  8
walls
  6
ByLayer
 62
  256
370
   -1
100
AcDbLine
 10
5845.559112746077
 20
632.224570964
 11
5845.559112746078
 21
726.224570964
  0
MTEXT
  5
10A
100
AcDbEntity
  8
text
  6
ByLayer
 62
  256
370
   -1
100
AcDbMText
 10
6090.647356043644
 20
834.2840051583125
 30
0
 40
50
 41
293.0555555555586
 71
    1
 72
    1
  1
Door 800
  7

210
0
220
0
230
1
 50
0
 73
    2
 44
1
  0
ENDSEC
  0
SECTION
  2
OBJECTS
  0
DICTIONARY
  5
C
330
0
100
AcDbDictionary
281
    1
  3
ACAD_GROUP
350
D
  0
DICTIONARY
  5
D
330
C
100
AcDbDictionary
281
    1
  0
ENDSEC
  0
EOF
